%YAML 1.1
%TAG !u! tag:unity3d.com,2011:
--- !u!1001 &5063336953320471041
PrefabInstance:
  m_ObjectHideFlags: 0
  serializedVersion: 2
  m_Modification:
    m_TransformParent: {fileID: 0}
    m_Modifications:
    - target: {fileID: 432881035755033701, guid: 6b72ca935b9f3a34192b7d0f7f7bffaa, type: 3}
      propertyPath: m_Name
      value: BigDoors
      objectReference: {fileID: 0}
    - target: {fileID: 628505732070943220, guid: 6b72ca935b9f3a34192b7d0f7f7bffaa, type: 3}
      propertyPath: m_IsActive
      value: 1
      objectReference: {fileID: 0}
    - target: {fileID: 628505732070943220, guid: 6b72ca935b9f3a34192b7d0f7f7bffaa, type: 3}
      propertyPath: m_StaticEditorFlags
      value: 126
      objectReference: {fileID: 0}
    - target: {fileID: 3970715664308685555, guid: 6b72ca935b9f3a34192b7d0f7f7bffaa, type: 3}
      propertyPath: m_IsActive
      value: 0
      objectReference: {fileID: 0}
    - target: {fileID: 4895789995080045990, guid: 6b72ca935b9f3a34192b7d0f7f7bffaa, type: 3}
      propertyPath: m_Materials.Array.data[2]
      value: 
      objectReference: {fileID: 2100000, guid: f25e7da33cbf72f4c98c5814e53ec2bc, type: 2}
    - target: {fileID: 4918142797257095303, guid: 6b72ca935b9f3a34192b7d0f7f7bffaa, type: 3}
      propertyPath: m_StaticEditorFlags
      value: 0
      objectReference: {fileID: 0}
    - target: {fileID: 7175709453461183322, guid: 6b72ca935b9f3a34192b7d0f7f7bffaa, type: 3}
      propertyPath: m_RootOrder
      value: 0
      objectReference: {fileID: 0}
    - target: {fileID: 7175709453461183322, guid: 6b72ca935b9f3a34192b7d0f7f7bffaa, type: 3}
      propertyPath: m_LocalScale.x
      value: 1.33551
      objectReference: {fileID: 0}
    - target: {fileID: 7175709453461183322, guid: 6b72ca935b9f3a34192b7d0f7f7bffaa, type: 3}
      propertyPath: m_LocalScale.y
      value: 1.33551
      objectReference: {fileID: 0}
    - target: {fileID: 7175709453461183322, guid: 6b72ca935b9f3a34192b7d0f7f7bffaa, type: 3}
      propertyPath: m_LocalScale.z
      value: 1.33551
      objectReference: {fileID: 0}
    - target: {fileID: 7175709453461183322, guid: 6b72ca935b9f3a34192b7d0f7f7bffaa, type: 3}
      propertyPath: m_LocalPosition.x
      value: 40.5
      objectReference: {fileID: 0}
    - target: {fileID: 7175709453461183322, guid: 6b72ca935b9f3a34192b7d0f7f7bffaa, type: 3}
      propertyPath: m_LocalPosition.y
      value: 0.862
      objectReference: {fileID: 0}
    - target: {fileID: 7175709453461183322, guid: 6b72ca935b9f3a34192b7d0f7f7bffaa, type: 3}
      propertyPath: m_LocalPosition.z
      value: 63.823
      objectReference: {fileID: 0}
    - target: {fileID: 7175709453461183322, guid: 6b72ca935b9f3a34192b7d0f7f7bffaa, type: 3}
      propertyPath: m_LocalRotation.w
      value: 0
      objectReference: {fileID: 0}
    - target: {fileID: 7175709453461183322, guid: 6b72ca935b9f3a34192b7d0f7f7bffaa, type: 3}
      propertyPath: m_LocalRotation.x
      value: 0
      objectReference: {fileID: 0}
    - target: {fileID: 7175709453461183322, guid: 6b72ca935b9f3a34192b7d0f7f7bffaa, type: 3}
      propertyPath: m_LocalRotation.y
      value: 1
      objectReference: {fileID: 0}
    - target: {fileID: 7175709453461183322, guid: 6b72ca935b9f3a34192b7d0f7f7bffaa, type: 3}
      propertyPath: m_LocalRotation.z
      value: 0
      objectReference: {fileID: 0}
    - target: {fileID: 7175709453461183322, guid: 6b72ca935b9f3a34192b7d0f7f7bffaa, type: 3}
      propertyPath: m_LocalEulerAnglesHint.x
      value: 0
      objectReference: {fileID: 0}
    - target: {fileID: 7175709453461183322, guid: 6b72ca935b9f3a34192b7d0f7f7bffaa, type: 3}
      propertyPath: m_LocalEulerAnglesHint.y
      value: 180
      objectReference: {fileID: 0}
    - target: {fileID: 7175709453461183322, guid: 6b72ca935b9f3a34192b7d0f7f7bffaa, type: 3}
      propertyPath: m_LocalEulerAnglesHint.z
      value: 0
      objectReference: {fileID: 0}
    - target: {fileID: 7545582061167017386, guid: 6b72ca935b9f3a34192b7d0f7f7bffaa, type: 3}
      propertyPath: DoorState
      value: 1
      objectReference: {fileID: 0}
    - target: {fileID: 8128118582126369836, guid: 6b72ca935b9f3a34192b7d0f7f7bffaa, type: 3}
      propertyPath: m_Materials.Array.data[0]
      value: 
      objectReference: {fileID: 2100000, guid: f25e7da33cbf72f4c98c5814e53ec2bc, type: 2}
    m_RemovedComponents: []
  m_SourcePrefab: {fileID: 100100000, guid: 6b72ca935b9f3a34192b7d0f7f7bffaa, type: 3}
