%YAML 1.1
%TAG !u! tag:unity3d.com,2011:
--- !u!114 &11400000
MonoBehaviour:
  m_ObjectHideFlags: 0
  m_CorrespondingSourceObject: {fileID: 0}
  m_PrefabInstance: {fileID: 0}
  m_PrefabAsset: {fileID: 0}
  m_GameObject: {fileID: 0}
  m_Enabled: 1
  m_EditorHideFlags: 0
  m_Script: {fileID: 11500000, guid: 57d0c11168277cf4eb3b4b89706e6aa5, type: 3}
  m_Name: OutlineLayerCollection
  m_EditorClassIdentifier: 
  _layers:
  - _settings:
      _outlineSettings: {fileID: 11400000, guid: da0eb2b1e8860d749960cc2e1498fafc, type: 2}
      _outlineColor: {r: 4, g: 0, b: 3.7905197, a: 1}
      _outlineWidth: 2
      _outlineIntensity: 1
      _outlineAlphaCutoff: 0.34
      _outlineMode: 2
    _name: Player1Outline
    _enabled: 1
    _mergeLayerObjects: 0
  - _settings:
      _outlineSettings: {fileID: 11400000, guid: e4da23d12a579bc4daddb5d825256deb, type: 2}
      _outlineColor: {r: 3.9999995, g: 0.7351414, b: 0, a: 1}
      _outlineWidth: 2
      _outlineIntensity: 1
      _outlineAlphaCutoff: 0.34
      _outlineMode: 2
    _name: Player2Outline
    _enabled: 1
    _mergeLayerObjects: 0
  _ignoreLayerMask: 0
