%YAML 1.1
%TAG !u! tag:unity3d.com,2011:
--- !u!114 &11400000
MonoBehaviour:
  m_ObjectHideFlags: 0
  m_CorrespondingSourceObject: {fileID: 0}
  m_PrefabInstance: {fileID: 0}
  m_PrefabAsset: {fileID: 0}
  m_GameObject: {fileID: 0}
  m_Enabled: 1
  m_EditorHideFlags: 0
  m_Script: {fileID: 11500000, guid: b579424fd3338724cba3155ee4d53475, type: 3}
  m_Name: Player1Outline
  m_EditorClassIdentifier: 
  _outlineColor: {r: 0.4397238, g: 0.66606045, b: 0.8000001, a: 1}
  _outlineWidth: 12
  _outlineIntensity: 2.3
  _outlineAlphaCutoff: 0.34
  _outlineMode: 3
