%YAML 1.1
%TAG !u! tag:unity3d.com,2011:
--- !u!1001 &5047246851218790876
PrefabInstance:
  m_ObjectHideFlags: 0
  serializedVersion: 2
  m_Modification:
    m_TransformParent: {fileID: 0}
    m_Modifications:
    - target: {fileID: -8679921383154817045, guid: ac33bc41ad2548c40be6abead6c0c63b, type: 3}
      propertyPath: m_RootOrder
      value: 0
      objectReference: {fileID: 0}
    - target: {fileID: -8679921383154817045, guid: ac33bc41ad2548c40be6abead6c0c63b, type: 3}
      propertyPath: m_LocalPosition.x
      value: 0
      objectReference: {fileID: 0}
    - target: {fileID: -8679921383154817045, guid: ac33bc41ad2548c40be6abead6c0c63b, type: 3}
      propertyPath: m_LocalPosition.y
      value: 0
      objectReference: {fileID: 0}
    - target: {fileID: -8679921383154817045, guid: ac33bc41ad2548c40be6abead6c0c63b, type: 3}
      propertyPath: m_LocalPosition.z
      value: 0
      objectReference: {fileID: 0}
    - target: {fileID: -8679921383154817045, guid: ac33bc41ad2548c40be6abead6c0c63b, type: 3}
      propertyPath: m_LocalRotation.w
      value: 1
      objectReference: {fileID: 0}
    - target: {fileID: -8679921383154817045, guid: ac33bc41ad2548c40be6abead6c0c63b, type: 3}
      propertyPath: m_LocalRotation.x
      value: 0
      objectReference: {fileID: 0}
    - target: {fileID: -8679921383154817045, guid: ac33bc41ad2548c40be6abead6c0c63b, type: 3}
      propertyPath: m_LocalRotation.y
      value: 0
      objectReference: {fileID: 0}
    - target: {fileID: -8679921383154817045, guid: ac33bc41ad2548c40be6abead6c0c63b, type: 3}
      propertyPath: m_LocalRotation.z
      value: 0
      objectReference: {fileID: 0}
    - target: {fileID: -8679921383154817045, guid: ac33bc41ad2548c40be6abead6c0c63b, type: 3}
      propertyPath: m_LocalEulerAnglesHint.x
      value: 0
      objectReference: {fileID: 0}
    - target: {fileID: -8679921383154817045, guid: ac33bc41ad2548c40be6abead6c0c63b, type: 3}
      propertyPath: m_LocalEulerAnglesHint.y
      value: 0
      objectReference: {fileID: 0}
    - target: {fileID: -8679921383154817045, guid: ac33bc41ad2548c40be6abead6c0c63b, type: 3}
      propertyPath: m_LocalEulerAnglesHint.z
      value: 0
      objectReference: {fileID: 0}
    - target: {fileID: -7511558181221131132, guid: ac33bc41ad2548c40be6abead6c0c63b, type: 3}
      propertyPath: m_Materials.Array.data[0]
      value: 
      objectReference: {fileID: 2100000, guid: dc772efc330be464785be67d4a6ee8a6, type: 2}
    - target: {fileID: 919132149155446097, guid: ac33bc41ad2548c40be6abead6c0c63b, type: 3}
      propertyPath: m_Name
      value: electric cable
      objectReference: {fileID: 0}
    m_RemovedComponents: []
  m_SourcePrefab: {fileID: 100100000, guid: ac33bc41ad2548c40be6abead6c0c63b, type: 3}
--- !u!1 &5389126041217787021 stripped
GameObject:
  m_CorrespondingSourceObject: {fileID: 919132149155446097, guid: ac33bc41ad2548c40be6abead6c0c63b, type: 3}
  m_PrefabInstance: {fileID: 5047246851218790876}
  m_PrefabAsset: {fileID: 0}
--- !u!65 &978114001
BoxCollider:
  m_ObjectHideFlags: 0
  m_CorrespondingSourceObject: {fileID: 0}
  m_PrefabInstance: {fileID: 0}
  m_PrefabAsset: {fileID: 0}
  m_GameObject: {fileID: 5389126041217787021}
  m_Material: {fileID: 0}
  m_IsTrigger: 0
  m_Enabled: 0
  serializedVersion: 2
  m_Size: {x: 0.37693062, y: 3.8312793, z: 0.13515317}
  m_Center: {x: -0.0048941523, y: 0.23273653, z: -0.06201941}
