%YAML 1.1
%TAG !u! tag:unity3d.com,2011:
--- !u!1001 &7588750592531922362
PrefabInstance:
  m_ObjectHideFlags: 0
  serializedVersion: 2
  m_Modification:
    m_TransformParent: {fileID: 0}
    m_Modifications:
    - target: {fileID: 978114001, guid: 62e70069d36571e41b6fa07f1eeb764b, type: 3}
      propertyPath: m_Size.y
      value: 2.9257371
      objectReference: {fileID: 0}
    - target: {fileID: 978114001, guid: 62e70069d36571e41b6fa07f1eeb764b, type: 3}
      propertyPath: m_Center.y
      value: 0.68550766
      objectReference: {fileID: 0}
    - target: {fileID: 978114001, guid: 62e70069d36571e41b6fa07f1eeb764b, type: 3}
      propertyPath: m_Center.z
      value: -0.062019408
      objectReference: {fileID: 0}
    - target: {fileID: 4720288322871082551, guid: 62e70069d36571e41b6fa07f1eeb764b, type: 3}
      propertyPath: m_RootOrder
      value: 0
      objectReference: {fileID: 0}
    - target: {fileID: 4720288322871082551, guid: 62e70069d36571e41b6fa07f1eeb764b, type: 3}
      propertyPath: m_LocalPosition.x
      value: 11.001
      objectReference: {fileID: 0}
    - target: {fileID: 4720288322871082551, guid: 62e70069d36571e41b6fa07f1eeb764b, type: 3}
      propertyPath: m_LocalPosition.y
      value: 0.82
      objectReference: {fileID: 0}
    - target: {fileID: 4720288322871082551, guid: 62e70069d36571e41b6fa07f1eeb764b, type: 3}
      propertyPath: m_LocalPosition.z
      value: 47.78
      objectReference: {fileID: 0}
    - target: {fileID: 4720288322871082551, guid: 62e70069d36571e41b6fa07f1eeb764b, type: 3}
      propertyPath: m_LocalRotation.w
      value: 0.7071068
      objectReference: {fileID: 0}
    - target: {fileID: 4720288322871082551, guid: 62e70069d36571e41b6fa07f1eeb764b, type: 3}
      propertyPath: m_LocalRotation.x
      value: 0
      objectReference: {fileID: 0}
    - target: {fileID: 4720288322871082551, guid: 62e70069d36571e41b6fa07f1eeb764b, type: 3}
      propertyPath: m_LocalRotation.y
      value: -0.7071068
      objectReference: {fileID: 0}
    - target: {fileID: 4720288322871082551, guid: 62e70069d36571e41b6fa07f1eeb764b, type: 3}
      propertyPath: m_LocalRotation.z
      value: 0
      objectReference: {fileID: 0}
    - target: {fileID: 4720288322871082551, guid: 62e70069d36571e41b6fa07f1eeb764b, type: 3}
      propertyPath: m_LocalEulerAnglesHint.x
      value: 0
      objectReference: {fileID: 0}
    - target: {fileID: 4720288322871082551, guid: 62e70069d36571e41b6fa07f1eeb764b, type: 3}
      propertyPath: m_LocalEulerAnglesHint.y
      value: -90
      objectReference: {fileID: 0}
    - target: {fileID: 4720288322871082551, guid: 62e70069d36571e41b6fa07f1eeb764b, type: 3}
      propertyPath: m_LocalEulerAnglesHint.z
      value: 0
      objectReference: {fileID: 0}
    - target: {fileID: 5389126041217787021, guid: 62e70069d36571e41b6fa07f1eeb764b, type: 3}
      propertyPath: m_Name
      value: electric cable Variant
      objectReference: {fileID: 0}
    - target: {fileID: 5389126041217787021, guid: 62e70069d36571e41b6fa07f1eeb764b, type: 3}
      propertyPath: m_StaticEditorFlags
      value: 4294967295
      objectReference: {fileID: 0}
    m_RemovedComponents: []
  m_SourcePrefab: {fileID: 100100000, guid: 62e70069d36571e41b6fa07f1eeb764b, type: 3}
