%YAML 1.1
%TAG !u! tag:unity3d.com,2011:
--- !u!1 &3859715233757350619
GameObject:
  m_ObjectHideFlags: 0
  m_CorrespondingSourceObject: {fileID: 0}
  m_PrefabInstance: {fileID: 0}
  m_PrefabAsset: {fileID: 0}
  serializedVersion: 6
  m_Component:
  - component: {fileID: 314932867859983299}
  m_Layer: 0
  m_Name: ElectricityBox2
  m_TagString: Untagged
  m_Icon: {fileID: 0}
  m_NavMeshLayer: 0
  m_StaticEditorFlags: 2147483647
  m_IsActive: 1
--- !u!4 &314932867859983299
Transform:
  m_ObjectHideFlags: 0
  m_CorrespondingSourceObject: {fileID: 0}
  m_PrefabInstance: {fileID: 0}
  m_PrefabAsset: {fileID: 0}
  m_GameObject: {fileID: 3859715233757350619}
  m_LocalRotation: {x: 0, y: 0, z: 0, w: 1}
  m_LocalPosition: {x: 0, y: 0, z: 0}
  m_LocalScale: {x: 1, y: 1, z: 1}
  m_ConstrainProportionsScale: 0
  m_Children:
  - {fileID: 7349959892197201150}
  m_Father: {fileID: 0}
  m_RootOrder: 0
  m_LocalEulerAnglesHint: {x: 0, y: 0, z: 0}
--- !u!1001 &7028699454214845205
PrefabInstance:
  m_ObjectHideFlags: 0
  serializedVersion: 2
  m_Modification:
    m_TransformParent: {fileID: 314932867859983299}
    m_Modifications:
    - target: {fileID: -8679921383154817045, guid: 93f055d011f5d4e0a8ee28e3dacd8170, type: 3}
      propertyPath: m_RootOrder
      value: 0
      objectReference: {fileID: 0}
    - target: {fileID: -8679921383154817045, guid: 93f055d011f5d4e0a8ee28e3dacd8170, type: 3}
      propertyPath: m_LocalPosition.x
      value: -1
      objectReference: {fileID: 0}
    - target: {fileID: -8679921383154817045, guid: 93f055d011f5d4e0a8ee28e3dacd8170, type: 3}
      propertyPath: m_LocalPosition.y
      value: 1.5
      objectReference: {fileID: 0}
    - target: {fileID: -8679921383154817045, guid: 93f055d011f5d4e0a8ee28e3dacd8170, type: 3}
      propertyPath: m_LocalPosition.z
      value: -0.010305964
      objectReference: {fileID: 0}
    - target: {fileID: -8679921383154817045, guid: 93f055d011f5d4e0a8ee28e3dacd8170, type: 3}
      propertyPath: m_LocalRotation.w
      value: 0.7071067
      objectReference: {fileID: 0}
    - target: {fileID: -8679921383154817045, guid: 93f055d011f5d4e0a8ee28e3dacd8170, type: 3}
      propertyPath: m_LocalRotation.x
      value: -0.7071068
      objectReference: {fileID: 0}
    - target: {fileID: -8679921383154817045, guid: 93f055d011f5d4e0a8ee28e3dacd8170, type: 3}
      propertyPath: m_LocalRotation.y
      value: 0
      objectReference: {fileID: 0}
    - target: {fileID: -8679921383154817045, guid: 93f055d011f5d4e0a8ee28e3dacd8170, type: 3}
      propertyPath: m_LocalRotation.z
      value: -0
      objectReference: {fileID: 0}
    - target: {fileID: -8679921383154817045, guid: 93f055d011f5d4e0a8ee28e3dacd8170, type: 3}
      propertyPath: m_LocalEulerAnglesHint.x
      value: 0
      objectReference: {fileID: 0}
    - target: {fileID: -8679921383154817045, guid: 93f055d011f5d4e0a8ee28e3dacd8170, type: 3}
      propertyPath: m_LocalEulerAnglesHint.y
      value: 0
      objectReference: {fileID: 0}
    - target: {fileID: -8679921383154817045, guid: 93f055d011f5d4e0a8ee28e3dacd8170, type: 3}
      propertyPath: m_LocalEulerAnglesHint.z
      value: 0
      objectReference: {fileID: 0}
    - target: {fileID: 919132149155446097, guid: 93f055d011f5d4e0a8ee28e3dacd8170, type: 3}
      propertyPath: m_Name
      value: ElectricityBox2
      objectReference: {fileID: 0}
    - target: {fileID: 919132149155446097, guid: 93f055d011f5d4e0a8ee28e3dacd8170, type: 3}
      propertyPath: m_StaticEditorFlags
      value: 2147483647
      objectReference: {fileID: 0}
    m_RemovedComponents: []
  m_SourcePrefab: {fileID: 100100000, guid: 93f055d011f5d4e0a8ee28e3dacd8170, type: 3}
--- !u!4 &7349959892197201150 stripped
Transform:
  m_CorrespondingSourceObject: {fileID: -8679921383154817045, guid: 93f055d011f5d4e0a8ee28e3dacd8170, type: 3}
  m_PrefabInstance: {fileID: 7028699454214845205}
  m_PrefabAsset: {fileID: 0}
