%YAML 1.1
%TAG !u! tag:unity3d.com,2011:
--- !u!74 &7400000
AnimationClip:
  m_ObjectHideFlags: 0
  m_CorrespondingSourceObject: {fileID: 0}
  m_PrefabInstance: {fileID: 0}
  m_PrefabAsset: {fileID: 0}
  m_Name: ReloadUI
  serializedVersion: 6
  m_Legacy: 0
  m_Compressed: 0
  m_UseHighQualityCurve: 1
  m_RotationCurves: []
  m_CompressedRotationCurves: []
  m_EulerCurves: []
  m_PositionCurves: []
  m_ScaleCurves: []
  m_FloatCurves: []
  m_PPtrCurves:
  - curve:
    - time: 0
      value: {fileID: 21300000, guid: 01861071ce52d4e8ba0c72801d767830, type: 3}
    - time: 0.016666668
      value: {fileID: 21300000, guid: 9cd74956015dd405585fdb6724dd1625, type: 3}
    - time: 0.033333335
      value: {fileID: 21300000, guid: 1b2624dbf47cd4abbba01a48e5c1de20, type: 3}
    - time: 0.05
      value: {fileID: 21300000, guid: 90c703df50ac34b42adc26321c945c77, type: 3}
    - time: 0.06666667
      value: {fileID: 21300000, guid: 2e9b310e842204d5393e8af6f731d15b, type: 3}
    - time: 0.083333336
      value: {fileID: 21300000, guid: 4a0f95f6783a4441c826379b70fb1fd6, type: 3}
    - time: 0.1
      value: {fileID: 21300000, guid: 6663887f676d14aec9e1f20e19468c57, type: 3}
    - time: 0.11666667
      value: {fileID: 21300000, guid: 26cc95393db5a4f648e8ec27d47f62ee, type: 3}
    - time: 0.13333334
      value: {fileID: 21300000, guid: cb82f4d071c114d408e72925dd94eac0, type: 3}
    - time: 0.15
      value: {fileID: 21300000, guid: d58dc6c86dcca4b08849e23a69f003cf, type: 3}
    - time: 0.16666667
      value: {fileID: 21300000, guid: ad4d34e17ad8642f7934052cd41b4e43, type: 3}
    - time: 0.18333334
      value: {fileID: 21300000, guid: 6553a8f0a7b6846e98066f1f5bc37e8b, type: 3}
    - time: 0.2
      value: {fileID: 21300000, guid: 714ba9d6fa285472991d776c052a1aa4, type: 3}
    - time: 0.21666667
      value: {fileID: 21300000, guid: 10990e0e20c174a93818671d5764b005, type: 3}
    - time: 0.23333333
      value: {fileID: 21300000, guid: 9a5522554c76b4db19dbff44fe841dd1, type: 3}
    - time: 0.25
      value: {fileID: 21300000, guid: 9fa34e51ed19346649d22b9e10ff12a9, type: 3}
    - time: 0.26666668
      value: {fileID: 21300000, guid: 4d124aa27fce348a38a1929bb3fc32e4, type: 3}
    - time: 0.28333333
      value: {fileID: 21300000, guid: 1c0dd435131eb4e20a08535e86c8331f, type: 3}
    - time: 0.3
      value: {fileID: 21300000, guid: 8a0fe37cc490b40c797de3e9abbaebdf, type: 3}
    - time: 0.31666666
      value: {fileID: 21300000, guid: 57069731e51f540b08c5143728d03e23, type: 3}
    - time: 0.33333334
      value: {fileID: 21300000, guid: 213612f540b82466b83fe35a8c41acb4, type: 3}
    - time: 0.35
      value: {fileID: 21300000, guid: a95128a5c65f84b7c9acd863950038f9, type: 3}
    - time: 0.36666667
      value: {fileID: 21300000, guid: dbf1d0e77139e4d149df3e9dc5d70b56, type: 3}
    - time: 0.38333333
      value: {fileID: 21300000, guid: 208a6fa506c1447309e3f066bd9a3a42, type: 3}
    - time: 0.4
      value: {fileID: 21300000, guid: a4cfef3fb065d45d2963a6fae2a37edd, type: 3}
    - time: 0.41666666
      value: {fileID: 21300000, guid: 0cdff0d0bd30c484c83847facf24964f, type: 3}
    - time: 0.43333334
      value: {fileID: 21300000, guid: c5b0a6a6f28cc4bd79adcbc441565d51, type: 3}
    - time: 0.45
      value: {fileID: 21300000, guid: b51117b08eb44421a9ac6d317b484948, type: 3}
    - time: 0.46666667
      value: {fileID: 21300000, guid: e4f60d759e1204c79bd9a79af3fbefde, type: 3}
    - time: 0.48333332
      value: {fileID: 21300000, guid: 86d4ba17d1eeb4f1eb7c4c723ed1e76b, type: 3}
    - time: 0.5
      value: {fileID: 21300000, guid: 9ad5813e89da342569de75841d0b4117, type: 3}
    - time: 0.51666665
      value: {fileID: 21300000, guid: 0be6c0d8f0b084a26a850de9206cf68e, type: 3}
    - time: 0.53333336
      value: {fileID: 21300000, guid: b40ce1ee6a1224d2786b182fea7d2554, type: 3}
    - time: 0.55
      value: {fileID: 21300000, guid: 9d61c878187da46fe969c011699b79aa, type: 3}
    - time: 0.56666666
      value: {fileID: 21300000, guid: 99f2efb3779b54b4aa2bf4a56c4abde2, type: 3}
    - time: 0.5833333
      value: {fileID: 21300000, guid: 7544249605a1e469d9f9805daf950d0a, type: 3}
    - time: 0.6
      value: {fileID: 21300000, guid: 471b3aa39045d412ea0463d230237ce8, type: 3}
    - time: 0.6166667
      value: {fileID: 21300000, guid: 582171de0aa034184857ccdc2f824ed0, type: 3}
    - time: 0.6333333
      value: {fileID: 21300000, guid: 7b0947a491c844330b1028e222737368, type: 3}
    - time: 0.65
      value: {fileID: 21300000, guid: 52988aaa7c9f84920bc64b4fc98dd1c9, type: 3}
    - time: 0.6666667
      value: {fileID: 21300000, guid: 9569978e1d1f34c25842a71f956b81d7, type: 3}
    - time: 0.68333334
      value: {fileID: 21300000, guid: fa8174113ca4d4121847ae73a2449b03, type: 3}
    - time: 0.7
      value: {fileID: 21300000, guid: dd0c5f909dbb645209da505a80cb5378, type: 3}
    - time: 0.71666664
      value: {fileID: 21300000, guid: 3d2e7e6a05b0f4c0eacd5f0d30298ff3, type: 3}
    - time: 0.73333335
      value: {fileID: 21300000, guid: 06efa81554879469cb44439de33bbea2, type: 3}
    - time: 0.75
      value: {fileID: 21300000, guid: 47b95d06898f04145bb0fcf7bbab0ae2, type: 3}
    - time: 0.76666665
      value: {fileID: 21300000, guid: 26b82b47ce7d04845aa23344e116ce5c, type: 3}
    - time: 0.78333336
      value: {fileID: 21300000, guid: 70deb89eadf674729a2fe537e2397c42, type: 3}
    - time: 0.8
      value: {fileID: 21300000, guid: 11ca8790d46dc4822b1a749ef1206200, type: 3}
    - time: 0.81666666
      value: {fileID: 21300000, guid: 08ba5af27457e4344b8479a4a4c0ab82, type: 3}
    attribute: m_Sprite
    path: 
    classID: 114
    script: {fileID: 11500000, guid: fe87c0e1cc204ed48ad3b37840f39efc, type: 3}
  m_SampleRate: 60
  m_WrapMode: 0
  m_Bounds:
    m_Center: {x: 0, y: 0, z: 0}
    m_Extent: {x: 0, y: 0, z: 0}
  m_ClipBindingConstant:
    genericBindings:
    - serializedVersion: 2
      path: 0
      attribute: 2015549526
      script: {fileID: 11500000, guid: fe87c0e1cc204ed48ad3b37840f39efc, type: 3}
      typeID: 114
      customType: 0
      isPPtrCurve: 1
    pptrCurveMapping:
    - {fileID: 21300000, guid: 01861071ce52d4e8ba0c72801d767830, type: 3}
    - {fileID: 21300000, guid: 9cd74956015dd405585fdb6724dd1625, type: 3}
    - {fileID: 21300000, guid: 1b2624dbf47cd4abbba01a48e5c1de20, type: 3}
    - {fileID: 21300000, guid: 90c703df50ac34b42adc26321c945c77, type: 3}
    - {fileID: 21300000, guid: 2e9b310e842204d5393e8af6f731d15b, type: 3}
    - {fileID: 21300000, guid: 4a0f95f6783a4441c826379b70fb1fd6, type: 3}
    - {fileID: 21300000, guid: 6663887f676d14aec9e1f20e19468c57, type: 3}
    - {fileID: 21300000, guid: 26cc95393db5a4f648e8ec27d47f62ee, type: 3}
    - {fileID: 21300000, guid: cb82f4d071c114d408e72925dd94eac0, type: 3}
    - {fileID: 21300000, guid: d58dc6c86dcca4b08849e23a69f003cf, type: 3}
    - {fileID: 21300000, guid: ad4d34e17ad8642f7934052cd41b4e43, type: 3}
    - {fileID: 21300000, guid: 6553a8f0a7b6846e98066f1f5bc37e8b, type: 3}
    - {fileID: 21300000, guid: 714ba9d6fa285472991d776c052a1aa4, type: 3}
    - {fileID: 21300000, guid: 10990e0e20c174a93818671d5764b005, type: 3}
    - {fileID: 21300000, guid: 9a5522554c76b4db19dbff44fe841dd1, type: 3}
    - {fileID: 21300000, guid: 9fa34e51ed19346649d22b9e10ff12a9, type: 3}
    - {fileID: 21300000, guid: 4d124aa27fce348a38a1929bb3fc32e4, type: 3}
    - {fileID: 21300000, guid: 1c0dd435131eb4e20a08535e86c8331f, type: 3}
    - {fileID: 21300000, guid: 8a0fe37cc490b40c797de3e9abbaebdf, type: 3}
    - {fileID: 21300000, guid: 57069731e51f540b08c5143728d03e23, type: 3}
    - {fileID: 21300000, guid: 213612f540b82466b83fe35a8c41acb4, type: 3}
    - {fileID: 21300000, guid: a95128a5c65f84b7c9acd863950038f9, type: 3}
    - {fileID: 21300000, guid: dbf1d0e77139e4d149df3e9dc5d70b56, type: 3}
    - {fileID: 21300000, guid: 208a6fa506c1447309e3f066bd9a3a42, type: 3}
    - {fileID: 21300000, guid: a4cfef3fb065d45d2963a6fae2a37edd, type: 3}
    - {fileID: 21300000, guid: 0cdff0d0bd30c484c83847facf24964f, type: 3}
    - {fileID: 21300000, guid: c5b0a6a6f28cc4bd79adcbc441565d51, type: 3}
    - {fileID: 21300000, guid: b51117b08eb44421a9ac6d317b484948, type: 3}
    - {fileID: 21300000, guid: e4f60d759e1204c79bd9a79af3fbefde, type: 3}
    - {fileID: 21300000, guid: 86d4ba17d1eeb4f1eb7c4c723ed1e76b, type: 3}
    - {fileID: 21300000, guid: 9ad5813e89da342569de75841d0b4117, type: 3}
    - {fileID: 21300000, guid: 0be6c0d8f0b084a26a850de9206cf68e, type: 3}
    - {fileID: 21300000, guid: b40ce1ee6a1224d2786b182fea7d2554, type: 3}
    - {fileID: 21300000, guid: 9d61c878187da46fe969c011699b79aa, type: 3}
    - {fileID: 21300000, guid: 99f2efb3779b54b4aa2bf4a56c4abde2, type: 3}
    - {fileID: 21300000, guid: 7544249605a1e469d9f9805daf950d0a, type: 3}
    - {fileID: 21300000, guid: 471b3aa39045d412ea0463d230237ce8, type: 3}
    - {fileID: 21300000, guid: 582171de0aa034184857ccdc2f824ed0, type: 3}
    - {fileID: 21300000, guid: 7b0947a491c844330b1028e222737368, type: 3}
    - {fileID: 21300000, guid: 52988aaa7c9f84920bc64b4fc98dd1c9, type: 3}
    - {fileID: 21300000, guid: 9569978e1d1f34c25842a71f956b81d7, type: 3}
    - {fileID: 21300000, guid: fa8174113ca4d4121847ae73a2449b03, type: 3}
    - {fileID: 21300000, guid: dd0c5f909dbb645209da505a80cb5378, type: 3}
    - {fileID: 21300000, guid: 3d2e7e6a05b0f4c0eacd5f0d30298ff3, type: 3}
    - {fileID: 21300000, guid: 06efa81554879469cb44439de33bbea2, type: 3}
    - {fileID: 21300000, guid: 47b95d06898f04145bb0fcf7bbab0ae2, type: 3}
    - {fileID: 21300000, guid: 26b82b47ce7d04845aa23344e116ce5c, type: 3}
    - {fileID: 21300000, guid: 70deb89eadf674729a2fe537e2397c42, type: 3}
    - {fileID: 21300000, guid: 11ca8790d46dc4822b1a749ef1206200, type: 3}
    - {fileID: 21300000, guid: 08ba5af27457e4344b8479a4a4c0ab82, type: 3}
  m_AnimationClipSettings:
    serializedVersion: 2
    m_AdditiveReferencePoseClip: {fileID: 0}
    m_AdditiveReferencePoseTime: 0
    m_StartTime: 0
    m_StopTime: 0.8333333
    m_OrientationOffsetY: 0
    m_Level: 0
    m_CycleOffset: 0
    m_HasAdditiveReferencePose: 0
    m_LoopTime: 1
    m_LoopBlend: 0
    m_LoopBlendOrientation: 0
    m_LoopBlendPositionY: 0
    m_LoopBlendPositionXZ: 0
    m_KeepOriginalOrientation: 0
    m_KeepOriginalPositionY: 1
    m_KeepOriginalPositionXZ: 0
    m_HeightFromFeet: 0
    m_Mirror: 0
  m_EditorCurves: []
  m_EulerEditorCurves: []
  m_HasGenericRootTransform: 0
  m_HasMotionFloatCurves: 0
  m_Events: []
