%YAML 1.1
%TAG !u! tag:unity3d.com,2011:
--- !u!1 &1702725676200994433
GameObject:
  m_ObjectHideFlags: 0
  m_CorrespondingSourceObject: {fileID: 0}
  m_PrefabInstance: {fileID: 0}
  m_PrefabAsset: {fileID: 0}
  serializedVersion: 6
  m_Component:
  - component: {fileID: 97498235697632261}
  m_Layer: 15
  m_Name: GameObject
  m_TagString: Untagged
  m_Icon: {fileID: 0}
  m_NavMeshLayer: 0
  m_StaticEditorFlags: 0
  m_IsActive: 1
--- !u!4 &97498235697632261
Transform:
  m_ObjectHideFlags: 0
  m_CorrespondingSourceObject: {fileID: 0}
  m_PrefabInstance: {fileID: 0}
  m_PrefabAsset: {fileID: 0}
  m_GameObject: {fileID: 1702725676200994433}
  m_LocalRotation: {x: 0, y: 0, z: 0, w: 1}
  m_LocalPosition: {x: 0, y: 0, z: 0}
  m_LocalScale: {x: 0.2, y: 0.2, z: 0.2}
  m_Children:
  - {fileID: 8972620615420640909}
  m_Father: {fileID: 0}
  m_RootOrder: 0
  m_LocalEulerAnglesHint: {x: 0, y: 0, z: 0}
--- !u!1001 &8867481650808953190
PrefabInstance:
  m_ObjectHideFlags: 0
  serializedVersion: 2
  m_Modification:
    m_TransformParent: {fileID: 97498235697632261}
    m_Modifications:
    - target: {fileID: -8679921383154817045, guid: 2680b8db9a8caaf49b565846a07ad541, type: 3}
      propertyPath: m_RootOrder
      value: 0
      objectReference: {fileID: 0}
    - target: {fileID: -8679921383154817045, guid: 2680b8db9a8caaf49b565846a07ad541, type: 3}
      propertyPath: m_LocalScale.x
      value: 6.3143597
      objectReference: {fileID: 0}
    - target: {fileID: -8679921383154817045, guid: 2680b8db9a8caaf49b565846a07ad541, type: 3}
      propertyPath: m_LocalScale.y
      value: 1.792084
      objectReference: {fileID: 0}
    - target: {fileID: -8679921383154817045, guid: 2680b8db9a8caaf49b565846a07ad541, type: 3}
      propertyPath: m_LocalScale.z
      value: 6.314359
      objectReference: {fileID: 0}
    - target: {fileID: -8679921383154817045, guid: 2680b8db9a8caaf49b565846a07ad541, type: 3}
      propertyPath: m_LocalPosition.x
      value: 0.202
      objectReference: {fileID: 0}
    - target: {fileID: -8679921383154817045, guid: 2680b8db9a8caaf49b565846a07ad541, type: 3}
      propertyPath: m_LocalPosition.y
      value: 0.366
      objectReference: {fileID: 0}
    - target: {fileID: -8679921383154817045, guid: 2680b8db9a8caaf49b565846a07ad541, type: 3}
      propertyPath: m_LocalPosition.z
      value: 0.228
      objectReference: {fileID: 0}
    - target: {fileID: -8679921383154817045, guid: 2680b8db9a8caaf49b565846a07ad541, type: 3}
      propertyPath: m_LocalRotation.w
      value: 0.7769795
      objectReference: {fileID: 0}
    - target: {fileID: -8679921383154817045, guid: 2680b8db9a8caaf49b565846a07ad541, type: 3}
      propertyPath: m_LocalRotation.x
      value: -0.08489777
      objectReference: {fileID: 0}
    - target: {fileID: -8679921383154817045, guid: 2680b8db9a8caaf49b565846a07ad541, type: 3}
      propertyPath: m_LocalRotation.y
      value: -0.20385244
      objectReference: {fileID: 0}
    - target: {fileID: -8679921383154817045, guid: 2680b8db9a8caaf49b565846a07ad541, type: 3}
      propertyPath: m_LocalRotation.z
      value: 0.5895247
      objectReference: {fileID: 0}
    - target: {fileID: -8679921383154817045, guid: 2680b8db9a8caaf49b565846a07ad541, type: 3}
      propertyPath: m_LocalEulerAnglesHint.x
      value: 6.225
      objectReference: {fileID: 0}
    - target: {fileID: -8679921383154817045, guid: 2680b8db9a8caaf49b565846a07ad541, type: 3}
      propertyPath: m_LocalEulerAnglesHint.y
      value: -24.793
      objectReference: {fileID: 0}
    - target: {fileID: -8679921383154817045, guid: 2680b8db9a8caaf49b565846a07ad541, type: 3}
      propertyPath: m_LocalEulerAnglesHint.z
      value: 73.009
      objectReference: {fileID: 0}
    - target: {fileID: 919132149155446097, guid: 2680b8db9a8caaf49b565846a07ad541, type: 3}
      propertyPath: m_Name
      value: Gun_M1911
      objectReference: {fileID: 0}
    m_RemovedComponents: []
  m_SourcePrefab: {fileID: 100100000, guid: 2680b8db9a8caaf49b565846a07ad541, type: 3}
--- !u!4 &8972620615420640909 stripped
Transform:
  m_CorrespondingSourceObject: {fileID: -8679921383154817045, guid: 2680b8db9a8caaf49b565846a07ad541, type: 3}
  m_PrefabInstance: {fileID: 8867481650808953190}
  m_PrefabAsset: {fileID: 0}
