%YAML 1.1
%TAG !u! tag:unity3d.com,2011:
--- !u!1045 &1
EditorBuildSettings:
  m_ObjectHideFlags: 0
  serializedVersion: 2
  m_Scenes:
  - enabled: 1
    path: Assets/Scenes/MainMenu.unity
    guid: d4fa984ade6a4184ba66ab8b01279abd
  - enabled: 1
    path: Assets/Scenes/FacilityModel.unity
    guid: 0f493e2f4aa3d6b428060f1fbe1d0881
  m_configObjects:
    com.unity.input.settings: {fileID: 11400000, guid: 61885e635b9b37c459d811936a76d593, type: 2}
