%YAML 1.1
%TAG !u! tag:unity3d.com,2011:
--- !u!1 &1139235335153640577
GameObject:
  m_ObjectHideFlags: 0
  m_CorrespondingSourceObject: {fileID: 0}
  m_PrefabInstance: {fileID: 0}
  m_PrefabAsset: {fileID: 0}
  serializedVersion: 6
  m_Component:
  - component: {fileID: 6035835124851704537}
  m_Layer: 0
  m_Name: ArmoryWardrobe_opened
  m_TagString: Untagged
  m_Icon: {fileID: 0}
  m_NavMeshLayer: 0
  m_StaticEditorFlags: 4294967295
  m_IsActive: 1
--- !u!4 &6035835124851704537
Transform:
  m_ObjectHideFlags: 0
  m_CorrespondingSourceObject: {fileID: 0}
  m_PrefabInstance: {fileID: 0}
  m_PrefabAsset: {fileID: 0}
  m_GameObject: {fileID: 1139235335153640577}
  m_LocalRotation: {x: 0, y: 0, z: 0, w: 1}
  m_LocalPosition: {x: 0, y: 0, z: 0}
  m_LocalScale: {x: 1, y: 1, z: 1}
  m_Children:
  - {fileID: 8068179986124443453}
  m_Father: {fileID: 0}
  m_RootOrder: 0
  m_LocalEulerAnglesHint: {x: 0, y: 0, z: 0}
--- !u!65 &593805022929758601
BoxCollider:
  m_ObjectHideFlags: 0
  m_CorrespondingSourceObject: {fileID: 0}
  m_PrefabInstance: {fileID: 0}
  m_PrefabAsset: {fileID: 0}
  m_GameObject: {fileID: 7258745280687592839}
  m_Material: {fileID: 0}
  m_IsTrigger: 0
  m_Enabled: 1
  serializedVersion: 2
  m_Size: {x: 0.0063709244, y: 0.030958828, z: 0.017477917}
  m_Center: {x: -0.00097477436, y: 0.00003345264, z: 0.00029428763}
--- !u!1001 &7529270420342597846
PrefabInstance:
  m_ObjectHideFlags: 0
  serializedVersion: 2
  m_Modification:
    m_TransformParent: {fileID: 6035835124851704537}
    m_Modifications:
    - target: {fileID: -8679921383154817045, guid: 20e99532295f2477fac4416deb4a4885, type: 3}
      propertyPath: m_RootOrder
      value: 0
      objectReference: {fileID: 0}
    - target: {fileID: -8679921383154817045, guid: 20e99532295f2477fac4416deb4a4885, type: 3}
      propertyPath: m_LocalPosition.x
      value: -8.165059
      objectReference: {fileID: 0}
    - target: {fileID: -8679921383154817045, guid: 20e99532295f2477fac4416deb4a4885, type: 3}
      propertyPath: m_LocalPosition.y
      value: 0.8430838
      objectReference: {fileID: 0}
    - target: {fileID: -8679921383154817045, guid: 20e99532295f2477fac4416deb4a4885, type: 3}
      propertyPath: m_LocalPosition.z
      value: 2.9199061
      objectReference: {fileID: 0}
    - target: {fileID: -8679921383154817045, guid: 20e99532295f2477fac4416deb4a4885, type: 3}
      propertyPath: m_LocalRotation.w
      value: 0.7071067
      objectReference: {fileID: 0}
    - target: {fileID: -8679921383154817045, guid: 20e99532295f2477fac4416deb4a4885, type: 3}
      propertyPath: m_LocalRotation.x
      value: -0.7071068
      objectReference: {fileID: 0}
    - target: {fileID: -8679921383154817045, guid: 20e99532295f2477fac4416deb4a4885, type: 3}
      propertyPath: m_LocalRotation.y
      value: 0
      objectReference: {fileID: 0}
    - target: {fileID: -8679921383154817045, guid: 20e99532295f2477fac4416deb4a4885, type: 3}
      propertyPath: m_LocalRotation.z
      value: -0
      objectReference: {fileID: 0}
    - target: {fileID: -8679921383154817045, guid: 20e99532295f2477fac4416deb4a4885, type: 3}
      propertyPath: m_LocalEulerAnglesHint.x
      value: 0
      objectReference: {fileID: 0}
    - target: {fileID: -8679921383154817045, guid: 20e99532295f2477fac4416deb4a4885, type: 3}
      propertyPath: m_LocalEulerAnglesHint.y
      value: 0
      objectReference: {fileID: 0}
    - target: {fileID: -8679921383154817045, guid: 20e99532295f2477fac4416deb4a4885, type: 3}
      propertyPath: m_LocalEulerAnglesHint.z
      value: 0
      objectReference: {fileID: 0}
    - target: {fileID: -7511558181221131132, guid: 20e99532295f2477fac4416deb4a4885, type: 3}
      propertyPath: m_Materials.Array.data[0]
      value: 
      objectReference: {fileID: 2100000, guid: 254768f6616774754aec316f70fec911, type: 2}
    - target: {fileID: -7511558181221131132, guid: 20e99532295f2477fac4416deb4a4885, type: 3}
      propertyPath: m_Materials.Array.data[1]
      value: 
      objectReference: {fileID: 2100000, guid: 9744bb3c03abd49249788eab7bbb6450, type: 2}
    - target: {fileID: -7511558181221131132, guid: 20e99532295f2477fac4416deb4a4885, type: 3}
      propertyPath: m_Materials.Array.data[2]
      value: 
      objectReference: {fileID: 2100000, guid: d58e8738dcb074644830f2dbb9e3d6cc, type: 2}
    - target: {fileID: -7511558181221131132, guid: 20e99532295f2477fac4416deb4a4885, type: 3}
      propertyPath: m_Materials.Array.data[3]
      value: 
      objectReference: {fileID: 2100000, guid: 9f445955cf95e4baebf84efa04fefff5, type: 2}
    - target: {fileID: 919132149155446097, guid: 20e99532295f2477fac4416deb4a4885, type: 3}
      propertyPath: m_Name
      value: ArmoryWardrobe_opened
      objectReference: {fileID: 0}
    - target: {fileID: 919132149155446097, guid: 20e99532295f2477fac4416deb4a4885, type: 3}
      propertyPath: m_StaticEditorFlags
      value: 4294967295
      objectReference: {fileID: 0}
    m_RemovedComponents: []
  m_SourcePrefab: {fileID: 100100000, guid: 20e99532295f2477fac4416deb4a4885, type: 3}
--- !u!1 &7258745280687592839 stripped
GameObject:
  m_CorrespondingSourceObject: {fileID: 919132149155446097, guid: 20e99532295f2477fac4416deb4a4885, type: 3}
  m_PrefabInstance: {fileID: 7529270420342597846}
  m_PrefabAsset: {fileID: 0}
--- !u!4 &8068179986124443453 stripped
Transform:
  m_CorrespondingSourceObject: {fileID: -8679921383154817045, guid: 20e99532295f2477fac4416deb4a4885, type: 3}
  m_PrefabInstance: {fileID: 7529270420342597846}
  m_PrefabAsset: {fileID: 0}
