%YAML 1.1
%TAG !u! tag:unity3d.com,2011:
--- !u!1 &5543608619042381359
GameObject:
  m_ObjectHideFlags: 0
  m_CorrespondingSourceObject: {fileID: 0}
  m_PrefabInstance: {fileID: 0}
  m_PrefabAsset: {fileID: 0}
  serializedVersion: 6
  m_Component:
  - component: {fileID: 7934136003328617775}
  m_Layer: 0
  m_Name: Kladka
  m_TagString: Untagged
  m_Icon: {fileID: 0}
  m_NavMeshLayer: 0
  m_StaticEditorFlags: 4294967295
  m_IsActive: 1
--- !u!4 &7934136003328617775
Transform:
  m_ObjectHideFlags: 0
  m_CorrespondingSourceObject: {fileID: 0}
  m_PrefabInstance: {fileID: 0}
  m_PrefabAsset: {fileID: 0}
  m_GameObject: {fileID: 5543608619042381359}
  m_LocalRotation: {x: 0, y: 0, z: 0, w: 1}
  m_LocalPosition: {x: 0, y: 0, z: 0}
  m_LocalScale: {x: 1, y: 1, z: 1}
  m_Children:
  - {fileID: 1565236713989761080}
  m_Father: {fileID: 0}
  m_RootOrder: 0
  m_LocalEulerAnglesHint: {x: 0, y: 0, z: 0}
--- !u!1001 &1311232499799494611
PrefabInstance:
  m_ObjectHideFlags: 0
  serializedVersion: 2
  m_Modification:
    m_TransformParent: {fileID: 7934136003328617775}
    m_Modifications:
    - target: {fileID: -8679921383154817045, guid: 61846c2e253374a8885fcb7c3916f393, type: 3}
      propertyPath: m_RootOrder
      value: 0
      objectReference: {fileID: 0}
    - target: {fileID: -8679921383154817045, guid: 61846c2e253374a8885fcb7c3916f393, type: 3}
      propertyPath: m_LocalPosition.x
      value: 7.2
      objectReference: {fileID: 0}
    - target: {fileID: -8679921383154817045, guid: 61846c2e253374a8885fcb7c3916f393, type: 3}
      propertyPath: m_LocalPosition.y
      value: 2.02
      objectReference: {fileID: 0}
    - target: {fileID: -8679921383154817045, guid: 61846c2e253374a8885fcb7c3916f393, type: 3}
      propertyPath: m_LocalPosition.z
      value: -14.2
      objectReference: {fileID: 0}
    - target: {fileID: -8679921383154817045, guid: 61846c2e253374a8885fcb7c3916f393, type: 3}
      propertyPath: m_LocalRotation.w
      value: 0.7071067
      objectReference: {fileID: 0}
    - target: {fileID: -8679921383154817045, guid: 61846c2e253374a8885fcb7c3916f393, type: 3}
      propertyPath: m_LocalRotation.x
      value: -0.7071068
      objectReference: {fileID: 0}
    - target: {fileID: -8679921383154817045, guid: 61846c2e253374a8885fcb7c3916f393, type: 3}
      propertyPath: m_LocalRotation.y
      value: 0
      objectReference: {fileID: 0}
    - target: {fileID: -8679921383154817045, guid: 61846c2e253374a8885fcb7c3916f393, type: 3}
      propertyPath: m_LocalRotation.z
      value: -0
      objectReference: {fileID: 0}
    - target: {fileID: -8679921383154817045, guid: 61846c2e253374a8885fcb7c3916f393, type: 3}
      propertyPath: m_LocalEulerAnglesHint.x
      value: 0
      objectReference: {fileID: 0}
    - target: {fileID: -8679921383154817045, guid: 61846c2e253374a8885fcb7c3916f393, type: 3}
      propertyPath: m_LocalEulerAnglesHint.y
      value: 0
      objectReference: {fileID: 0}
    - target: {fileID: -8679921383154817045, guid: 61846c2e253374a8885fcb7c3916f393, type: 3}
      propertyPath: m_LocalEulerAnglesHint.z
      value: 0
      objectReference: {fileID: 0}
    - target: {fileID: -7511558181221131132, guid: 61846c2e253374a8885fcb7c3916f393, type: 3}
      propertyPath: m_Materials.Array.data[0]
      value: 
      objectReference: {fileID: 2100000, guid: 09ba7236471e848a29b31af9d1ad364f, type: 2}
    - target: {fileID: 919132149155446097, guid: 61846c2e253374a8885fcb7c3916f393, type: 3}
      propertyPath: m_Name
      value: KladkyJezdce
      objectReference: {fileID: 0}
    - target: {fileID: 919132149155446097, guid: 61846c2e253374a8885fcb7c3916f393, type: 3}
      propertyPath: m_StaticEditorFlags
      value: 4294967295
      objectReference: {fileID: 0}
    m_RemovedComponents: []
  m_SourcePrefab: {fileID: 100100000, guid: 61846c2e253374a8885fcb7c3916f393, type: 3}
--- !u!4 &1565236713989761080 stripped
Transform:
  m_CorrespondingSourceObject: {fileID: -8679921383154817045, guid: 61846c2e253374a8885fcb7c3916f393, type: 3}
  m_PrefabInstance: {fileID: 1311232499799494611}
  m_PrefabAsset: {fileID: 0}
