%YAML 1.1
%TAG !u! tag:unity3d.com,2011:
--- !u!1 &5728700113514898048
GameObject:
  m_ObjectHideFlags: 0
  m_CorrespondingSourceObject: {fileID: 0}
  m_PrefabInstance: {fileID: 0}
  m_PrefabAsset: {fileID: 0}
  serializedVersion: 6
  m_Component:
  - component: {fileID: 2579389980980798096}
  m_Layer: 0
  m_Name: Shotgun
  m_TagString: Untagged
  m_Icon: {fileID: 0}
  m_NavMeshLayer: 0
  m_StaticEditorFlags: 0
  m_IsActive: 1
--- !u!4 &2579389980980798096
Transform:
  m_ObjectHideFlags: 0
  m_CorrespondingSourceObject: {fileID: 0}
  m_PrefabInstance: {fileID: 0}
  m_PrefabAsset: {fileID: 0}
  m_GameObject: {fileID: 5728700113514898048}
  m_LocalRotation: {x: 0, y: 0, z: 0, w: 1}
  m_LocalPosition: {x: -0.00043245, y: 0.007007, z: 3.0574e-10}
  m_LocalScale: {x: 1.1641, y: 1.1641, z: 1.1641}
  m_Children:
  - {fileID: 4079813591593024082}
  m_Father: {fileID: 0}
  m_RootOrder: 0
  m_LocalEulerAnglesHint: {x: 0, y: 0, z: 0}
--- !u!1001 &4545488434718514617
PrefabInstance:
  m_ObjectHideFlags: 0
  serializedVersion: 2
  m_Modification:
    m_TransformParent: {fileID: 2579389980980798096}
    m_Modifications:
    - target: {fileID: -8679921383154817045, guid: 17d240992b7be4f6b955d53b3e7eba3c, type: 3}
      propertyPath: m_RootOrder
      value: 0
      objectReference: {fileID: 0}
    - target: {fileID: -8679921383154817045, guid: 17d240992b7be4f6b955d53b3e7eba3c, type: 3}
      propertyPath: m_LocalPosition.x
      value: -0
      objectReference: {fileID: 0}
    - target: {fileID: -8679921383154817045, guid: 17d240992b7be4f6b955d53b3e7eba3c, type: 3}
      propertyPath: m_LocalPosition.y
      value: 0
      objectReference: {fileID: 0}
    - target: {fileID: -8679921383154817045, guid: 17d240992b7be4f6b955d53b3e7eba3c, type: 3}
      propertyPath: m_LocalPosition.z
      value: -1.3461204e-10
      objectReference: {fileID: 0}
    - target: {fileID: -8679921383154817045, guid: 17d240992b7be4f6b955d53b3e7eba3c, type: 3}
      propertyPath: m_LocalRotation.w
      value: 1
      objectReference: {fileID: 0}
    - target: {fileID: -8679921383154817045, guid: 17d240992b7be4f6b955d53b3e7eba3c, type: 3}
      propertyPath: m_LocalRotation.x
      value: 0.000000021855694
      objectReference: {fileID: 0}
    - target: {fileID: -8679921383154817045, guid: 17d240992b7be4f6b955d53b3e7eba3c, type: 3}
      propertyPath: m_LocalRotation.y
      value: 0
      objectReference: {fileID: 0}
    - target: {fileID: -8679921383154817045, guid: 17d240992b7be4f6b955d53b3e7eba3c, type: 3}
      propertyPath: m_LocalRotation.z
      value: -0
      objectReference: {fileID: 0}
    - target: {fileID: -8679921383154817045, guid: 17d240992b7be4f6b955d53b3e7eba3c, type: 3}
      propertyPath: m_LocalEulerAnglesHint.x
      value: 0
      objectReference: {fileID: 0}
    - target: {fileID: -8679921383154817045, guid: 17d240992b7be4f6b955d53b3e7eba3c, type: 3}
      propertyPath: m_LocalEulerAnglesHint.y
      value: 0
      objectReference: {fileID: 0}
    - target: {fileID: -8679921383154817045, guid: 17d240992b7be4f6b955d53b3e7eba3c, type: 3}
      propertyPath: m_LocalEulerAnglesHint.z
      value: 0
      objectReference: {fileID: 0}
    - target: {fileID: 919132149155446097, guid: 17d240992b7be4f6b955d53b3e7eba3c, type: 3}
      propertyPath: m_Name
      value: Shotgun
      objectReference: {fileID: 0}
    m_RemovedComponents: []
  m_SourcePrefab: {fileID: 100100000, guid: 17d240992b7be4f6b955d53b3e7eba3c, type: 3}
--- !u!4 &4079813591593024082 stripped
Transform:
  m_CorrespondingSourceObject: {fileID: -8679921383154817045, guid: 17d240992b7be4f6b955d53b3e7eba3c, type: 3}
  m_PrefabInstance: {fileID: 4545488434718514617}
  m_PrefabAsset: {fileID: 0}
