%YAML 1.1
%TAG !u! tag:unity3d.com,2011:
--- !u!65 &2159251144908468946
BoxCollider:
  m_ObjectHideFlags: 0
  m_CorrespondingSourceObject: {fileID: 0}
  m_PrefabInstance: {fileID: 0}
  m_PrefabAsset: {fileID: 0}
  m_GameObject: {fileID: 778555785098848875}
  m_Material: {fileID: 0}
  m_IsTrigger: 0
  m_Enabled: 1
  serializedVersion: 2
  m_Size: {x: 0.023013402, y: 0.012826598, z: 0.006458527}
  m_Center: {x: -0.0020105517, y: 0.0018327982, z: -0.0035363336}
--- !u!65 &9051356160074880505
BoxCollider:
  m_ObjectHideFlags: 0
  m_CorrespondingSourceObject: {fileID: 0}
  m_PrefabInstance: {fileID: 0}
  m_PrefabAsset: {fileID: 0}
  m_GameObject: {fileID: 778555785098848875}
  m_Material: {fileID: 0}
  m_IsTrigger: 0
  m_Enabled: 1
  serializedVersion: 2
  m_Size: {x: 0.01709103, y: 0.026354883, z: 0.006944453}
  m_Center: {x: 0.0009506343, y: 0.000097685894, z: -0.0032933713}
--- !u!1 &8966839289597508172
GameObject:
  m_ObjectHideFlags: 0
  m_CorrespondingSourceObject: {fileID: 0}
  m_PrefabInstance: {fileID: 0}
  m_PrefabAsset: {fileID: 0}
  serializedVersion: 6
  m_Component:
  - component: {fileID: 464556258771756650}
  m_Layer: 0
  m_Name: Table_Researching
  m_TagString: Untagged
  m_Icon: {fileID: 0}
  m_NavMeshLayer: 0
  m_StaticEditorFlags: 4294967295
  m_IsActive: 1
--- !u!4 &464556258771756650
Transform:
  m_ObjectHideFlags: 0
  m_CorrespondingSourceObject: {fileID: 0}
  m_PrefabInstance: {fileID: 0}
  m_PrefabAsset: {fileID: 0}
  m_GameObject: {fileID: 8966839289597508172}
  m_LocalRotation: {x: 0, y: 0, z: 0, w: 1}
  m_LocalPosition: {x: 0, y: 0, z: 0}
  m_LocalScale: {x: 1, y: 1, z: 1}
  m_Children:
  - {fileID: 109824650390024401}
  m_Father: {fileID: 0}
  m_RootOrder: 0
  m_LocalEulerAnglesHint: {x: 0, y: 0, z: 0}
--- !u!1001 &435887698728277818
PrefabInstance:
  m_ObjectHideFlags: 0
  serializedVersion: 2
  m_Modification:
    m_TransformParent: {fileID: 464556258771756650}
    m_Modifications:
    - target: {fileID: -8679921383154817045, guid: 6f53f70e1c2bd4c8294fea5b9e247734, type: 3}
      propertyPath: m_RootOrder
      value: 0
      objectReference: {fileID: 0}
    - target: {fileID: -8679921383154817045, guid: 6f53f70e1c2bd4c8294fea5b9e247734, type: 3}
      propertyPath: m_LocalPosition.x
      value: -9.114617
      objectReference: {fileID: 0}
    - target: {fileID: -8679921383154817045, guid: 6f53f70e1c2bd4c8294fea5b9e247734, type: 3}
      propertyPath: m_LocalPosition.y
      value: 0.6730528
      objectReference: {fileID: 0}
    - target: {fileID: -8679921383154817045, guid: 6f53f70e1c2bd4c8294fea5b9e247734, type: 3}
      propertyPath: m_LocalPosition.z
      value: -0.85531086
      objectReference: {fileID: 0}
    - target: {fileID: -8679921383154817045, guid: 6f53f70e1c2bd4c8294fea5b9e247734, type: 3}
      propertyPath: m_LocalRotation.w
      value: 0.7071067
      objectReference: {fileID: 0}
    - target: {fileID: -8679921383154817045, guid: 6f53f70e1c2bd4c8294fea5b9e247734, type: 3}
      propertyPath: m_LocalRotation.x
      value: -0.7071068
      objectReference: {fileID: 0}
    - target: {fileID: -8679921383154817045, guid: 6f53f70e1c2bd4c8294fea5b9e247734, type: 3}
      propertyPath: m_LocalRotation.y
      value: 0
      objectReference: {fileID: 0}
    - target: {fileID: -8679921383154817045, guid: 6f53f70e1c2bd4c8294fea5b9e247734, type: 3}
      propertyPath: m_LocalRotation.z
      value: -0
      objectReference: {fileID: 0}
    - target: {fileID: -8679921383154817045, guid: 6f53f70e1c2bd4c8294fea5b9e247734, type: 3}
      propertyPath: m_LocalEulerAnglesHint.x
      value: 0
      objectReference: {fileID: 0}
    - target: {fileID: -8679921383154817045, guid: 6f53f70e1c2bd4c8294fea5b9e247734, type: 3}
      propertyPath: m_LocalEulerAnglesHint.y
      value: 0
      objectReference: {fileID: 0}
    - target: {fileID: -8679921383154817045, guid: 6f53f70e1c2bd4c8294fea5b9e247734, type: 3}
      propertyPath: m_LocalEulerAnglesHint.z
      value: 0
      objectReference: {fileID: 0}
    - target: {fileID: -7511558181221131132, guid: 6f53f70e1c2bd4c8294fea5b9e247734, type: 3}
      propertyPath: m_Materials.Array.data[0]
      value: 
      objectReference: {fileID: 2100000, guid: 26795befce624465b9f6260fc97807bb, type: 2}
    - target: {fileID: -7511558181221131132, guid: 6f53f70e1c2bd4c8294fea5b9e247734, type: 3}
      propertyPath: m_Materials.Array.data[1]
      value: 
      objectReference: {fileID: 2100000, guid: d58e8738dcb074644830f2dbb9e3d6cc, type: 2}
    - target: {fileID: -7511558181221131132, guid: 6f53f70e1c2bd4c8294fea5b9e247734, type: 3}
      propertyPath: m_Materials.Array.data[2]
      value: 
      objectReference: {fileID: 2100000, guid: 9744bb3c03abd49249788eab7bbb6450, type: 2}
    - target: {fileID: -7511558181221131132, guid: 6f53f70e1c2bd4c8294fea5b9e247734, type: 3}
      propertyPath: m_Materials.Array.data[3]
      value: 
      objectReference: {fileID: 2100000, guid: 129eb73b8228e411caf32d9a6e23c47f, type: 2}
    - target: {fileID: -7511558181221131132, guid: 6f53f70e1c2bd4c8294fea5b9e247734, type: 3}
      propertyPath: m_Materials.Array.data[4]
      value: 
      objectReference: {fileID: 2100000, guid: abff24236c4ec4d5e937218a258f9b10, type: 2}
    - target: {fileID: -7511558181221131132, guid: 6f53f70e1c2bd4c8294fea5b9e247734, type: 3}
      propertyPath: m_Materials.Array.data[5]
      value: 
      objectReference: {fileID: 2100000, guid: a2cc3b34e5c1b4ee7aab6411909393e1, type: 2}
    - target: {fileID: -7511558181221131132, guid: 6f53f70e1c2bd4c8294fea5b9e247734, type: 3}
      propertyPath: m_Materials.Array.data[6]
      value: 
      objectReference: {fileID: 2100000, guid: 09ba7236471e848a29b31af9d1ad364f, type: 2}
    - target: {fileID: -7511558181221131132, guid: 6f53f70e1c2bd4c8294fea5b9e247734, type: 3}
      propertyPath: m_Materials.Array.data[7]
      value: 
      objectReference: {fileID: 2100000, guid: 254768f6616774754aec316f70fec911, type: 2}
    - target: {fileID: 919132149155446097, guid: 6f53f70e1c2bd4c8294fea5b9e247734, type: 3}
      propertyPath: m_Name
      value: Table_PlasmaGadget
      objectReference: {fileID: 0}
    - target: {fileID: 919132149155446097, guid: 6f53f70e1c2bd4c8294fea5b9e247734, type: 3}
      propertyPath: m_StaticEditorFlags
      value: 4294967295
      objectReference: {fileID: 0}
    m_RemovedComponents: []
  m_SourcePrefab: {fileID: 100100000, guid: 6f53f70e1c2bd4c8294fea5b9e247734, type: 3}
--- !u!1 &778555785098848875 stripped
GameObject:
  m_CorrespondingSourceObject: {fileID: 919132149155446097, guid: 6f53f70e1c2bd4c8294fea5b9e247734, type: 3}
  m_PrefabInstance: {fileID: 435887698728277818}
  m_PrefabAsset: {fileID: 0}
--- !u!4 &109824650390024401 stripped
Transform:
  m_CorrespondingSourceObject: {fileID: -8679921383154817045, guid: 6f53f70e1c2bd4c8294fea5b9e247734, type: 3}
  m_PrefabInstance: {fileID: 435887698728277818}
  m_PrefabAsset: {fileID: 0}
