%YAML 1.1
%TAG !u! tag:unity3d.com,2011:
--- !u!1 &6631716777609937380
GameObject:
  m_ObjectHideFlags: 0
  m_CorrespondingSourceObject: {fileID: 0}
  m_PrefabInstance: {fileID: 0}
  m_PrefabAsset: {fileID: 0}
  serializedVersion: 6
  m_Component:
  - component: {fileID: 5877740007601334313}
  m_Layer: 0
  m_Name: WeaponNastenka
  m_TagString: Untagged
  m_Icon: {fileID: 0}
  m_NavMeshLayer: 0
  m_StaticEditorFlags: 4294967295
  m_IsActive: 1
--- !u!4 &5877740007601334313
Transform:
  m_ObjectHideFlags: 0
  m_CorrespondingSourceObject: {fileID: 0}
  m_PrefabInstance: {fileID: 0}
  m_PrefabAsset: {fileID: 0}
  m_GameObject: {fileID: 6631716777609937380}
  m_LocalRotation: {x: 0, y: 0, z: 0, w: 1}
  m_LocalPosition: {x: 0, y: 0, z: 0}
  m_LocalScale: {x: 1, y: 1, z: 1}
  m_Children:
  - {fileID: 9033326398898251010}
  m_Father: {fileID: 0}
  m_RootOrder: 0
  m_LocalEulerAnglesHint: {x: 0, y: 0, z: 0}
--- !u!1001 &8851379777009894121
PrefabInstance:
  m_ObjectHideFlags: 0
  serializedVersion: 2
  m_Modification:
    m_TransformParent: {fileID: 5877740007601334313}
    m_Modifications:
    - target: {fileID: -8679921383154817045, guid: fc5477b7d483a445a8720ea78cd6cf17, type: 3}
      propertyPath: m_RootOrder
      value: 0
      objectReference: {fileID: 0}
    - target: {fileID: -8679921383154817045, guid: fc5477b7d483a445a8720ea78cd6cf17, type: 3}
      propertyPath: m_LocalPosition.x
      value: -8.165059
      objectReference: {fileID: 0}
    - target: {fileID: -8679921383154817045, guid: fc5477b7d483a445a8720ea78cd6cf17, type: 3}
      propertyPath: m_LocalPosition.y
      value: 0.908465
      objectReference: {fileID: 0}
    - target: {fileID: -8679921383154817045, guid: fc5477b7d483a445a8720ea78cd6cf17, type: 3}
      propertyPath: m_LocalPosition.z
      value: 7.6693587
      objectReference: {fileID: 0}
    - target: {fileID: -8679921383154817045, guid: fc5477b7d483a445a8720ea78cd6cf17, type: 3}
      propertyPath: m_LocalRotation.w
      value: 0.7071067
      objectReference: {fileID: 0}
    - target: {fileID: -8679921383154817045, guid: fc5477b7d483a445a8720ea78cd6cf17, type: 3}
      propertyPath: m_LocalRotation.x
      value: -0.7071068
      objectReference: {fileID: 0}
    - target: {fileID: -8679921383154817045, guid: fc5477b7d483a445a8720ea78cd6cf17, type: 3}
      propertyPath: m_LocalRotation.y
      value: 0
      objectReference: {fileID: 0}
    - target: {fileID: -8679921383154817045, guid: fc5477b7d483a445a8720ea78cd6cf17, type: 3}
      propertyPath: m_LocalRotation.z
      value: -0
      objectReference: {fileID: 0}
    - target: {fileID: -8679921383154817045, guid: fc5477b7d483a445a8720ea78cd6cf17, type: 3}
      propertyPath: m_LocalEulerAnglesHint.x
      value: 0
      objectReference: {fileID: 0}
    - target: {fileID: -8679921383154817045, guid: fc5477b7d483a445a8720ea78cd6cf17, type: 3}
      propertyPath: m_LocalEulerAnglesHint.y
      value: 0
      objectReference: {fileID: 0}
    - target: {fileID: -8679921383154817045, guid: fc5477b7d483a445a8720ea78cd6cf17, type: 3}
      propertyPath: m_LocalEulerAnglesHint.z
      value: 0
      objectReference: {fileID: 0}
    - target: {fileID: -7511558181221131132, guid: fc5477b7d483a445a8720ea78cd6cf17, type: 3}
      propertyPath: m_Materials.Array.data[0]
      value: 
      objectReference: {fileID: 2100000, guid: 9744bb3c03abd49249788eab7bbb6450, type: 2}
    - target: {fileID: 919132149155446097, guid: fc5477b7d483a445a8720ea78cd6cf17, type: 3}
      propertyPath: m_Name
      value: WeaponNastenka
      objectReference: {fileID: 0}
    - target: {fileID: 919132149155446097, guid: fc5477b7d483a445a8720ea78cd6cf17, type: 3}
      propertyPath: m_StaticEditorFlags
      value: 4294967295
      objectReference: {fileID: 0}
    m_RemovedComponents: []
  m_SourcePrefab: {fileID: 100100000, guid: fc5477b7d483a445a8720ea78cd6cf17, type: 3}
--- !u!4 &9033326398898251010 stripped
Transform:
  m_CorrespondingSourceObject: {fileID: -8679921383154817045, guid: fc5477b7d483a445a8720ea78cd6cf17, type: 3}
  m_PrefabInstance: {fileID: 8851379777009894121}
  m_PrefabAsset: {fileID: 0}
