# ProBuilder 4.5.2
# https://unity3d.com/unity/features/worldbuilding/probuilder
# 12.04.2022 15:30:16

mtllib ./MainHallWithPillars.mtl
o MainHallWithPillars

g MainHallWithPillars
v 0 0 18
v -1 0 18
v 0 1 18
v -1 1 18
v -7 0 0
v -7 0 -1
v -7 1 0
v -7 1 -1
v -1 0 -8
v 0 0 -8
v -1 1 -8
v 0 1 -8
v 0 0 -1
v 0 0 0
v 0 1 -1
v 0 1 0
v -1 1 0
v -1 1 -1
v -1 0 -1
v -1 0 0
v -2 0 0
v -2 0 -1
v -2 1 18
v -2 0 18
v -2 0 -8
v -2 1 -8
v -2 1 -1
v -2 1 0
v -3 0 0
v -3 0 -1
v -3 1 18
v -3 0 18
v -3 0 -8
v -3 1 -8
v -3 1 -1
v -3 1 0
v -4 0 0
v -4 0 -1
v -4 1 18
v -4 0 18
v -4 0 -8
v -4 1 -8
v -4 1 -1
v -4 1 0
v -5 0 0
v -5 0 -1
v -5 1 18
v -5 0 18
v -5 0 -8
v -5 1 -8
v -5 1 -1
v -5 1 0
v -6 0 0
v -6 0 -1
v -6 1 18
v -6 0 18
v -6 0 -8
v -6 1 -8
v -6 1 -1
v -6 1 0
v -7 1 18
v -7 0 18
v -7 0 -8
v -7 1 -8
v -1 0 -2
v 0 0 -2
v -2 0 -2
v 0 1 -2
v -1 1 -2
v -2 1 -2
v -3 0 -2
v -3 1 -2
v -4 0 -2
v -4 1 -2
v -5 0 -2
v -5 1 -2
v -6 0 -2
v -6 1 -2
v -7 0 -2
v -7 1 -2
v -1 0 -3
v 0 0 -3
v -2 0 -3
v 0 1 -3
v -1 1 -3
v -2 1 -3
v -3 0 -3
v -3 1 -3
v -4 0 -3
v -4 1 -3
v -5 0 -3
v -5 1 -3
v -6 0 -3
v -6 1 -3
v -7 0 -3
v -7 1 -3
v -1 0 -4
v 0 0 -4
v -2 0 -4
v 0 1 -4
v -1 1 -4
v -2 1 -4
v -3 0 -4
v -3 1 -4
v -4 0 -4
v -4 1 -4
v -5 0 -4
v -5 1 -4
v -6 0 -4
v -6 1 -4
v -7 0 -4
v -7 1 -4
v -1 0 -5
v 0 0 -5
v -2 0 -5
v 0 1 -5
v -1 1 -5
v -2 1 -5
v -3 0 -5
v -3 1 -5
v -4 0 -5
v -4 1 -5
v -5 0 -5
v -5 1 -5
v -6 0 -5
v -6 1 -5
v -7 0 -5
v -7 1 -5
v -1 0 -6
v 0 0 -6
v -2 0 -6
v 0 1 -6
v -1 1 -6
v -2 1 -6
v -3 0 -6
v -3 1 -6
v -4 0 -6
v -4 1 -6
v -5 0 -6
v -5 1 -6
v -6 0 -6
v -6 1 -6
v -7 0 -6
v -7 1 -6
v -1 0 -7
v 0 0 -7
v -2 0 -7
v 0 1 -7
v -1 1 -7
v -2 1 -7
v -3 0 -7
v -3 1 -7
v -4 0 -7
v -4 1 -7
v -5 0 -7
v -5 1 -7
v -6 0 -7
v -6 1 -7
v -7 0 -7
v -7 1 -7
v 0 0 1
v -1 0 1
v -7 1 1
v -6 1 1
v -6 0 1
v -7 0 1
v -1 1 1
v 0 1 1
v -5 1 1
v -5 0 1
v -4 1 1
v -4 0 1
v -3 1 1
v -3 0 1
v -2 1 1
v -2 0 1
v 0 0 2
v -1 0 2
v -7 1 2
v -6 1 2
v -6 0 2
v -7 0 2
v -1 1 2
v 0 1 2
v -5 1 2
v -5 0 2
v -4 1 2
v -4 0 2
v -3 1 2
v -3 0 2
v -2 1 2
v -2 0 2
v 0 0 3
v -1 0 3
v -7 1 3
v -6 1 3
v -6 0 3
v -7 0 3
v -1 1 3
v 0 1 3
v -5 1 3
v -5 0 3
v -4 1 3
v -4 0 3
v -3 1 3
v -3 0 3
v -2 1 3
v -2 0 3
v 0 0 4
v -1 0 4
v -7 1 4
v -6 1 4
v -6 0 4
v -7 0 4
v -1 1 4
v 0 1 4
v -5 1 4
v -5 0 4
v -4 1 4
v -4 0 4
v -3 1 4
v -3 0 4
v -2 1 4
v -2 0 4
v 0 0 5
v -1 0 5
v -7 1 5
v -6 1 5
v -6 0 5
v -7 0 5
v -1 1 5
v 0 1 5
v -5 1 5
v -5 0 5
v -4 1 5
v -4 0 5
v -3 1 5
v -3 0 5
v -2 1 5
v -2 0 5
v 0 0 6
v -1 0 6
v -7 1 6
v -6 1 6
v -6 0 6
v -7 0 6
v -1 1 6
v 0 1 6
v -5 1 6
v -5 0 6
v -4 1 6
v -4 0 6
v -3 1 6
v -3 0 6
v -2 1 6
v -2 0 6
v 0 0 7
v -1 0 7
v -7 1 7
v -6 1 7
v -6 0 7
v -7 0 7
v -1 1 7
v 0 1 7
v -5 1 7
v -5 0 7
v -4 1 7
v -4 0 7
v -3 1 7
v -3 0 7
v -2 1 7
v -2 0 7
v 0 0 8
v -1 0 8
v -7 1 8
v -6 1 8
v -6 0 8
v -7 0 8
v -1 1 8
v 0 1 8
v -5 1 8
v -5 0 8
v -4 1 8
v -4 0 8
v -3 1 8
v -3 0 8
v -2 1 8
v -2 0 8
v 0 0 9
v -1 0 9
v -7 1 9
v -6 1 9
v -6 0 9
v -7 0 9
v -1 1 9
v 0 1 9
v -5 1 9
v -5 0 9
v -4 1 9
v -4 0 9
v -3 1 9
v -3 0 9
v -2 1 9
v -2 0 9
v 0 0 10
v -1 0 10
v -7 1 10
v -6 1 10
v -6 0 10
v -7 0 10
v -1 1 10
v 0 1 10
v -5 1 10
v -5 0 10
v -4 1 10
v -4 0 10
v -3 1 10
v -3 0 10
v -2 1 10
v -2 0 10
v 0 0 11
v -1 0 11
v -7 1 11
v -6 1 11
v -6 0 11
v -7 0 11
v -1 1 11
v 0 1 11
v -5 1 11
v -5 0 11
v -4 1 11
v -4 0 11
v -3 1 11
v -3 0 11
v -2 1 11
v -2 0 11
v 0 0 12
v -1 0 12
v -7 1 12
v -6 1 12
v -6 0 12
v -7 0 12
v -22 0 11
v -22 1 11
v -22 0 12
v -22 1 12
v -1 1 12
v 0 1 12
v -5 1 12
v -5 0 12
v -4 1 12
v -4 0 12
v -3 1 12
v -3 0 12
v -2 1 12
v -2 0 12
v 0 0 13
v -1 0 13
v -7 1 13
v -6 1 13
v -6 0 13
v -7 0 13
v -22 0 13
v -22 1 13
v -1 1 13
v 0 1 13
v -5 1 13
v -5 0 13
v -4 1 13
v -4 0 13
v -3 1 13
v -3 0 13
v -2 1 13
v -2 0 13
v 0 0 14
v -1 0 14
v -7 1 14
v -6 1 14
v -6 0 14
v -7 0 14
v -22 0 14
v -22 1 14
v -1 1 14
v 0 1 14
v -5 1 14
v -5 0 14
v -4 1 14
v -4 0 14
v -3 1 14
v -3 0 14
v -2 1 14
v -2 0 14
v 0 0 15
v -1 0 15
v -7 1 15
v -6 1 15
v -6 0 15
v -7 0 15
v -22 0 15
v -22 1 15
v -1 1 15
v 0 1 15
v -5 1 15
v -5 0 15
v -4 1 15
v -4 0 15
v -3 1 15
v -3 0 15
v -2 1 15
v -2 0 15
v 0 0 16
v -1 0 16
v -7 1 16
v -6 1 16
v -6 0 16
v -7 0 16
v -22 0 16
v -22 1 16
v -1 1 16
v 0 1 16
v -5 1 16
v -5 0 16
v -4 1 16
v -4 0 16
v -3 1 16
v -3 0 16
v -2 1 16
v -2 0 16
v 0 0 17
v -1 0 17
v -7 1 17
v -6 1 17
v -6 0 17
v -7 0 17
v -1 1 17
v 0 1 17
v -5 1 17
v -5 0 17
v -4 1 17
v -4 0 17
v -3 1 17
v -3 0 17
v -2 1 17
v -2 0 17
v -8 0 11
v -8 1 11
v -8 0 12
v -8 1 12
v -8 0 13
v -8 1 13
v -8 0 14
v -8 1 14
v -8 0 15
v -8 1 15
v -8 0 16
v -8 1 16
v -9 0 11
v -9 1 11
v -9 0 12
v -9 1 12
v -9 0 13
v -9 1 13
v -9 0 14
v -8 3 13
v -8 3 14
v -9 3 13
v -9 3 14
v -9 0 15
v -9 1 14
v -9 1 15
v -9 0 16
v -9 1 16
v -10 0 11
v -10 1 11
v -10 0 12
v -10 1 12
v -10 0 13
v -10 1 13
v -10 0 14
v -10 3 13
v -10 3 14
v -10 0 15
v -10 1 14
v -10 1 15
v -10 0 16
v -10 1 16
v -11 0 11
v -11 1 11
v -11 0 12
v -11 1 12
v -11 0 13
v -11 1 13
v -11 0 14
v -11 1 14
v -11 0 15
v -11 1 15
v -11 0 16
v -11 1 16
v -12 0 11
v -12 1 11
v -12 0 12
v -12 1 12
v -12 0 13
v -12 1 13
v -12 0 14
v -12 1 14
v -12 0 15
v -12 1 15
v -12 0 16
v -12 1 16
v -13 0 11
v -13 1 11
v -13 0 12
v -13 1 12
v -13 0 13
v -13 1 13
v -13 0 14
v -13 1 14
v -13 0 15
v -13 1 15
v -13 0 16
v -13 1 16
v -14 0 11
v -14 1 11
v -14 0 12
v -14 1 12
v -14 0 13
v -14 1 13
v -14 0 14
v -14 1 14
v -14 0 15
v -14 1 15
v -14 0 16
v -14 1 16
v -15 0 11
v -15 1 11
v -15 0 12
v -15 1 12
v -15 0 13
v -15 1 13
v -15 0 14
v -14 3 13
v -14 3 14
v -15 3 13
v -15 3 14
v -15 0 15
v -15 1 14
v -15 1 15
v -15 0 16
v -15 1 16
v -16 0 11
v -16 1 11
v -16 0 12
v -16 1 12
v -16 0 13
v -16 1 13
v -16 0 14
v -16 3 13
v -16 3 14
v -16 0 15
v -16 1 14
v -16 1 15
v -16 0 16
v -16 1 16
v -17 0 11
v -17 1 11
v -17 0 12
v -17 1 12
v -17 0 13
v -17 1 13
v -17 0 14
v -17 1 14
v -17 0 15
v -17 1 15
v -17 0 16
v -17 1 16
v -18 0 11
v -18 1 11
v -18 0 12
v -18 1 12
v -18 0 13
v -18 1 13
v -18 0 14
v -18 1 14
v -18 0 15
v -18 1 15
v -18 0 16
v -18 1 16
v -17 1 33
v -17 0 33
v -18 1 33
v -18 0 33
v -19 0 11
v -19 1 11
v -19 0 12
v -19 1 12
v -19 0 13
v -19 1 13
v -19 0 14
v -19 1 14
v -19 0 15
v -19 1 15
v -19 0 16
v -19 1 16
v -20 0 11
v -20 1 11
v -20 0 12
v -20 1 12
v -20 0 13
v -20 1 13
v -20 0 14
v -20 1 14
v -20 0 15
v -20 1 15
v -20 0 16
v -20 1 16
v -21 0 11
v -21 1 11
v -21 0 12
v -21 1 12
v -21 0 13
v -21 1 13
v -21 0 14
v -21 1 14
v -21 0 15
v -21 1 15
v -21 0 16
v -21 1 16
v -21 1 33
v -21 0 33
v -22 1 33
v -22 0 33
v -17 1 17
v -17 0 17
v -22 1 17
v -21 1 17
v -21 0 17
v -22 0 17
v -20 1 17
v -20 0 17
v -19 1 17
v -19 0 17
v -18 1 17
v -18 0 17
v -17 1 18
v -17 0 18
v -22 1 18
v -21 1 18
v -21 0 18
v -22 0 18
v -20 1 18
v -20 0 18
v -20 3 17
v -19 3 17
v -20 3 18
v -19 3 18
v -19 0 18
v -19 1 18
v -18 1 18
v -18 0 18
v -17 1 19
v -17 0 19
v -22 1 19
v -21 1 19
v -21 0 19
v -22 0 19
v -20 1 19
v -20 0 19
v -20 3 19
v -19 3 19
v -19 0 19
v -19 1 19
v -18 1 19
v -18 0 19
v -17 1 20
v -17 0 20
v -22 1 20
v -21 1 20
v -21 0 20
v -22 0 20
v -20 1 20
v -20 0 20
v -19 1 20
v -19 0 20
v -18 1 20
v -18 0 20
v -17 1 21
v -17 0 21
v -22 1 21
v -21 1 21
v -21 0 21
v -22 0 21
v -20 1 21
v -20 0 21
v -19 1 21
v -19 0 21
v -18 1 21
v -18 0 21
v -17 1 22
v -17 0 22
v -22 1 22
v -21 1 22
v -21 0 22
v -22 0 22
v -20 1 22
v -20 0 22
v -19 1 22
v -19 0 22
v -18 1 22
v -18 0 22
v -17 1 23
v -17 0 23
v -22 1 23
v -21 1 23
v -21 0 23
v -22 0 23
v -20 1 23
v -20 0 23
v -19 1 23
v -19 0 23
v -18 1 23
v -18 0 23
v -17 1 24
v -17 0 24
v -22 1 24
v -21 1 24
v -21 0 24
v -22 0 24
v -20 1 24
v -20 0 24
v -20 3 23
v -19 3 23
v -20 3 24
v -19 3 24
v -19 0 24
v -19 1 24
v -18 1 24
v -18 0 24
v -17 1 25
v -17 0 25
v -22 1 25
v -21 1 25
v -21 0 25
v -22 0 25
v -20 1 25
v -20 0 25
v -20 3 25
v -19 3 25
v -19 0 25
v -19 1 25
v -18 1 25
v -18 0 25
v -17 1 26
v -17 0 26
v -22 1 26
v -21 1 26
v -21 0 26
v -22 0 26
v -20 1 26
v -20 0 26
v -19 1 26
v -19 0 26
v -18 1 26
v -18 0 26
v -17 1 27
v -17 0 27
v -22 1 27
v -21 1 27
v -21 0 27
v -22 0 27
v -20 1 27
v -20 0 27
v -19 1 27
v -19 0 27
v -18 1 27
v -18 0 27
v -17 1 28
v -17 0 28
v -22 1 28
v -21 1 28
v -21 0 28
v -22 0 28
v -20 1 28
v -20 0 28
v -19 1 28
v -19 0 28
v -18 1 28
v -18 0 28
v -17 1 29
v -17 0 29
v -22 1 29
v -21 1 29
v -21 0 29
v -22 0 29
v -20 1 29
v -20 0 29
v -19 1 29
v -19 0 29
v -18 1 29
v -18 0 29
v -17 1 30
v -17 0 30
v -22 1 30
v -21 1 30
v -21 0 30
v -22 0 30
v -20 1 30
v -20 0 30
v -19 1 30
v -19 0 30
v -18 1 30
v -18 0 30
v -17 1 31
v -17 0 31
v -22 1 31
v -21 1 31
v -21 0 31
v -22 0 31
v -20 1 31
v -20 0 31
v -19 1 31
v -19 0 31
v -18 1 31
v -18 0 31
v -17 1 32
v -17 0 32
v -22 1 32
v -21 1 32
v -21 0 32
v -22 0 32
v -20 1 32
v -20 0 32
v -19 1 32
v -19 0 32
v -18 1 32
v -18 0 32
v -20 1 33
v -20 0 33
v -19 1 33
v -19 0 33
v -8 2 13
v -8 2 14
v -9 2 13
v -9 2 14
v -10 2 13
v -10 2 14
v -14 2 13
v -14 2 14
v -15 2 13
v -15 2 14
v -16 2 13
v -16 2 14
v -20 2 17
v -19 2 17
v -20 2 18
v -19 2 18
v -20 2 19
v -19 2 19
v -20 2 23
v -19 2 23
v -20 2 24
v -19 2 24
v -20 2 25
v -19 2 25

vt 0 0
vt -1 0
vt 0 1
vt -1 1
vt 1 0
vt 1 1
vt 0 -1
vt 1 -1
vt -1 -1
vt -2 0
vt -2 -1
vt -2 1
vt 2 0
vt 2 1
vt 2 -1
vt -3 0
vt -3 -1
vt -3 1
vt 3 0
vt 3 1
vt 3 -1
vt -4 0
vt -4 -1
vt -4 1
vt 4 0
vt 4 1
vt 4 -1
vt -5 0
vt -5 -1
vt -5 1
vt 5 0
vt 5 1
vt 5 -1
vt -6 0
vt -6 -1
vt -6 1
vt 6 0
vt 6 1
vt 6 -1
vt -7 0
vt -7 -1
vt -7 1
vt 7 0
vt 7 1
vt 7 -1
vt -1 -2
vt 0 -2
vt -2 -2
vt 1 -2
vt 2 -2
vt -3 -2
vt 3 -2
vt -4 -2
vt 4 -2
vt -5 -2
vt 5 -2
vt -6 -2
vt 6 -2
vt -7 -2
vt 7 -2
vt -1 -3
vt 0 -3
vt -2 -3
vt 1 -3
vt 2 -3
vt -3 -3
vt 3 -3
vt -4 -3
vt 4 -3
vt -5 -3
vt 5 -3
vt -6 -3
vt 6 -3
vt -7 -3
vt 7 -3
vt -1 -4
vt 0 -4
vt -2 -4
vt 1 -4
vt 2 -4
vt -3 -4
vt 3 -4
vt -4 -4
vt 4 -4
vt -5 -4
vt 5 -4
vt -6 -4
vt 6 -4
vt -7 -4
vt 7 -4
vt -1 -5
vt 0 -5
vt -2 -5
vt 1 -5
vt 2 -5
vt -3 -5
vt 3 -5
vt -4 -5
vt 4 -5
vt -5 -5
vt 5 -5
vt -6 -5
vt 6 -5
vt -7 -5
vt 7 -5
vt -1 -6
vt 0 -6
vt -2 -6
vt 1 -6
vt 2 -6
vt -3 -6
vt 3 -6
vt -4 -6
vt 4 -6
vt -5 -6
vt 5 -6
vt -6 -6
vt 6 -6
vt -7 -6
vt 7 -6
vt -1 -7
vt 0 -7
vt -2 -7
vt 1 -7
vt 2 -7
vt -3 -7
vt 3 -7
vt -4 -7
vt 4 -7
vt -5 -7
vt 5 -7
vt -6 -7
vt 6 -7
vt -7 -7
vt 7 -7
vt -1 -8
vt 0 -8
vt -2 -8
vt 8 0
vt 8 1
vt 1 -8
vt 2 -8
vt -3 -8
vt 3 -8
vt -4 -8
vt 4 -8
vt -5 -8
vt 5 -8
vt -6 -8
vt 6 -8
vt -7 -8
vt 7 -8
vt -8 1
vt -8 0
vt 0 2
vt -1 2
vt 7 2
vt 6 2
vt -6 2
vt -7 2
vt 1 2
vt 5 2
vt -5 2
vt 4 2
vt -4 2
vt 3 2
vt -3 2
vt 2 2
vt -2 2
vt 0 3
vt -1 3
vt 7 3
vt 6 3
vt -6 3
vt -7 3
vt 1 3
vt 5 3
vt -5 3
vt 4 3
vt -4 3
vt 3 3
vt -3 3
vt 2 3
vt -2 3
vt 0 4
vt -1 4
vt 7 4
vt 6 4
vt -6 4
vt -7 4
vt 1 4
vt 5 4
vt -5 4
vt 4 4
vt -4 4
vt 3 4
vt -3 4
vt 2 4
vt -2 4
vt 0 5
vt -1 5
vt 7 5
vt 6 5
vt -6 5
vt -7 5
vt 1 5
vt 5 5
vt -5 5
vt 4 5
vt -4 5
vt 3 5
vt -3 5
vt 2 5
vt -2 5
vt 0 6
vt -1 6
vt 7 6
vt 6 6
vt -6 6
vt -7 6
vt 1 6
vt 5 6
vt -5 6
vt 4 6
vt -4 6
vt 3 6
vt -3 6
vt 2 6
vt -2 6
vt 0 7
vt -1 7
vt 7 7
vt 6 7
vt -6 7
vt -7 7
vt 1 7
vt 5 7
vt -5 7
vt 4 7
vt -4 7
vt 3 7
vt -3 7
vt 2 7
vt -2 7
vt 0 8
vt -1 8
vt 7 8
vt 6 8
vt -6 8
vt -7 8
vt 1 8
vt 5 8
vt -5 8
vt 4 8
vt -4 8
vt 3 8
vt -3 8
vt 2 8
vt -2 8
vt 0 9
vt -1 9
vt 7 9
vt 6 9
vt -6 9
vt -7 9
vt 9 0
vt 9 1
vt 1 9
vt 5 9
vt -5 9
vt 4 9
vt -4 9
vt 3 9
vt -3 9
vt 2 9
vt -2 9
vt -9 1
vt -9 0
vt 0 10
vt -1 10
vt 7 10
vt 6 10
vt -6 10
vt -7 10
vt 10 0
vt 10 1
vt 1 10
vt 5 10
vt -5 10
vt 4 10
vt -4 10
vt 3 10
vt -3 10
vt 2 10
vt -2 10
vt -10 1
vt -10 0
vt 0 11
vt -1 11
vt 7 11
vt 6 11
vt -6 11
vt -7 11
vt 11 0
vt 11 1
vt 1 11
vt 5 11
vt -5 11
vt 4 11
vt -4 11
vt 3 11
vt -3 11
vt 2 11
vt -2 11
vt -11 1
vt -11 0
vt 0 12
vt -1 12
vt 7 12
vt 6 12
vt -6 12
vt -7 12
vt 12 0
vt 12 1
vt 1 12
vt 5 12
vt -5 12
vt 4 12
vt -4 12
vt 3 12
vt -3 12
vt 2 12
vt -2 12
vt -12 1
vt -12 0
vt 0 13
vt -1 13
vt 7 13
vt 6 13
vt -6 13
vt -7 13
vt 13 0
vt 13 1
vt 1 13
vt 5 13
vt -5 13
vt 4 13
vt -4 13
vt 3 13
vt -3 13
vt 2 13
vt -2 13
vt -13 1
vt -13 0
vt 0 14
vt -1 14
vt 7 14
vt 6 14
vt -6 14
vt -7 14
vt 14 0
vt 14 1
vt 1 14
vt 5 14
vt -5 14
vt 4 14
vt -4 14
vt 3 14
vt -3 14
vt 2 14
vt -2 14
vt -14 1
vt -14 0
vt 0 15
vt -1 15
vt 7 15
vt 6 15
vt -6 15
vt -7 15
vt 15 0
vt 15 1
vt 1 15
vt 5 15
vt -5 15
vt 4 15
vt -4 15
vt 3 15
vt -3 15
vt 2 15
vt -2 15
vt -15 1
vt -15 0
vt 0 16
vt -1 16
vt 7 16
vt 6 16
vt -6 16
vt -7 16
vt 16 0
vt 16 1
vt 1 16
vt 5 16
vt -5 16
vt 4 16
vt -4 16
vt 3 16
vt -3 16
vt 2 16
vt -2 16
vt -16 1
vt -16 0
vt 0 17
vt -1 17
vt 7 17
vt 6 17
vt -6 17
vt -7 17
vt 17 0
vt 17 1
vt 1 17
vt 5 17
vt -5 17
vt 4 17
vt -4 17
vt 3 17
vt -3 17
vt 2 17
vt -2 17
vt -17 1
vt -17 0
vt 0 18
vt -1 18
vt 7 18
vt 6 18
vt -6 18
vt -7 18
vt 18 0
vt 18 1
vt 1 18
vt 5 18
vt -5 18
vt 4 18
vt -4 18
vt 3 18
vt -3 18
vt 2 18
vt -2 18
vt -18 1
vt -18 0
vt -8 12
vt -8 11
vt 8 11
vt 8 12
vt -8 13
vt 8 13
vt -8 14
vt 8 14
vt -8 15
vt 8 15
vt -8 16
vt 8 16
vt -9 12
vt -9 11
vt 9 11
vt 9 12
vt -9 13
vt 9 13
vt -9 14
vt 9 14
vt -9 15
vt 9 15
vt -9 16
vt 9 16
vt -10 12
vt -10 11
vt 10 11
vt 10 12
vt -10 13
vt 10 13
vt -10 14
vt 10 14
vt -10 15
vt 10 15
vt -10 16
vt 10 16
vt -11 12
vt -11 11
vt 11 11
vt 11 12
vt -11 13
vt 11 13
vt -11 14
vt 11 14
vt -11 15
vt 11 15
vt -11 16
vt 11 16
vt -12 12
vt -12 11
vt 12 11
vt 12 12
vt -12 13
vt 12 13
vt -12 14
vt 12 14
vt -12 15
vt 12 15
vt -12 16
vt 12 16
vt -13 12
vt -13 11
vt 13 11
vt 13 12
vt -13 13
vt 13 13
vt -13 14
vt 13 14
vt -13 15
vt 13 15
vt -13 16
vt 13 16
vt -14 12
vt -14 11
vt 14 11
vt 14 12
vt -14 13
vt 14 13
vt -14 14
vt 14 14
vt -14 15
vt 14 15
vt -14 16
vt 14 16
vt -15 12
vt -15 11
vt 15 11
vt 15 12
vt -15 13
vt 15 13
vt -15 14
vt 15 14
vt -15 15
vt 15 15
vt -15 16
vt 15 16
vt -16 12
vt -16 11
vt 16 11
vt 16 12
vt -16 13
vt 16 13
vt -16 14
vt 16 14
vt -16 15
vt 16 15
vt -16 16
vt 16 16
vt -17 12
vt -17 11
vt 17 11
vt 17 12
vt -17 13
vt 17 13
vt -17 14
vt 17 14
vt -17 15
vt 17 15
vt -17 16
vt 17 16
vt -18 12
vt -18 11
vt 18 11
vt 18 12
vt -18 13
vt 18 13
vt -18 14
vt 18 14
vt -18 15
vt 18 15
vt -18 16
vt 18 16
vt 19 0
vt 19 1
vt -19 12
vt -19 11
vt 19 11
vt 19 12
vt -19 13
vt 19 13
vt -19 14
vt 19 14
vt -19 15
vt 19 15
vt -19 16
vt 19 16
vt 20 0
vt 20 1
vt -20 12
vt -20 11
vt 20 11
vt 20 12
vt -20 13
vt 20 13
vt -20 14
vt 20 14
vt -20 15
vt 20 15
vt -20 16
vt 20 16
vt 21 0
vt 21 1
vt -21 12
vt -21 11
vt 21 11
vt 21 12
vt -21 13
vt 21 13
vt -21 14
vt 21 14
vt -21 15
vt 21 15
vt -21 16
vt 21 16
vt 22 0
vt 22 1
vt -22 12
vt -22 11
vt 22 11
vt 22 12
vt -22 13
vt 22 13
vt -22 14
vt 22 14
vt -22 15
vt 22 15
vt -22 16
vt 22 16
vt -21 1
vt -21 0
vt -22 1
vt -22 0
vt 22 17
vt 21 17
vt -21 17
vt -22 17
vt 20 17
vt -20 17
vt 19 17
vt -19 17
vt 18 17
vt -18 17
vt 17 17
vt -17 17
vt 22 18
vt 21 18
vt -21 18
vt -22 18
vt 20 18
vt -20 18
vt 19 18
vt -19 18
vt 18 18
vt -18 18
vt 17 18
vt -17 18
vt -19 1
vt -19 0
vt 22 19
vt 21 19
vt -21 19
vt -22 19
vt 20 19
vt -20 19
vt 19 19
vt -19 19
vt 18 19
vt -18 19
vt 17 19
vt -17 19
vt -20 1
vt -20 0
vt 22 20
vt 21 20
vt -21 20
vt -22 20
vt 20 20
vt -20 20
vt 19 20
vt -19 20
vt 18 20
vt -18 20
vt 17 20
vt -17 20
vt 22 21
vt 21 21
vt -21 21
vt -22 21
vt 20 21
vt -20 21
vt 19 21
vt -19 21
vt 18 21
vt -18 21
vt 17 21
vt -17 21
vt 22 22
vt 21 22
vt -21 22
vt -22 22
vt 20 22
vt -20 22
vt 19 22
vt -19 22
vt 18 22
vt -18 22
vt 17 22
vt -17 22
vt -23 1
vt -23 0
vt 22 23
vt 21 23
vt -21 23
vt -22 23
vt 23 0
vt 23 1
vt 20 23
vt -20 23
vt 19 23
vt -19 23
vt 18 23
vt -18 23
vt 17 23
vt -17 23
vt -24 1
vt -24 0
vt 22 24
vt 21 24
vt -21 24
vt -22 24
vt 24 0
vt 24 1
vt 20 24
vt -20 24
vt 19 24
vt -19 24
vt 18 24
vt -18 24
vt 17 24
vt -17 24
vt -25 1
vt -25 0
vt 22 25
vt 21 25
vt -21 25
vt -22 25
vt 25 0
vt 25 1
vt 20 25
vt -20 25
vt 19 25
vt -19 25
vt 18 25
vt -18 25
vt 17 25
vt -17 25
vt -26 1
vt -26 0
vt 22 26
vt 21 26
vt -21 26
vt -22 26
vt 26 0
vt 26 1
vt 20 26
vt -20 26
vt 19 26
vt -19 26
vt 18 26
vt -18 26
vt 17 26
vt -17 26
vt -27 1
vt -27 0
vt 22 27
vt 21 27
vt -21 27
vt -22 27
vt 27 0
vt 27 1
vt 20 27
vt -20 27
vt 19 27
vt -19 27
vt 18 27
vt -18 27
vt 17 27
vt -17 27
vt -28 1
vt -28 0
vt 22 28
vt 21 28
vt -21 28
vt -22 28
vt 28 0
vt 28 1
vt 20 28
vt -20 28
vt 19 28
vt -19 28
vt 18 28
vt -18 28
vt 17 28
vt -17 28
vt -29 1
vt -29 0
vt 22 29
vt 21 29
vt -21 29
vt -22 29
vt 29 0
vt 29 1
vt 20 29
vt -20 29
vt 19 29
vt -19 29
vt 18 29
vt -18 29
vt 17 29
vt -17 29
vt -30 1
vt -30 0
vt 22 30
vt 21 30
vt -21 30
vt -22 30
vt 30 0
vt 30 1
vt 20 30
vt -20 30
vt 19 30
vt -19 30
vt 18 30
vt -18 30
vt 17 30
vt -17 30
vt -31 1
vt -31 0
vt 22 31
vt 21 31
vt -21 31
vt -22 31
vt 31 0
vt 31 1
vt 20 31
vt -20 31
vt 19 31
vt -19 31
vt 18 31
vt -18 31
vt 17 31
vt -17 31
vt -32 1
vt -32 0
vt 22 32
vt 21 32
vt -21 32
vt -22 32
vt 32 0
vt 32 1
vt 20 32
vt -20 32
vt 19 32
vt -19 32
vt 18 32
vt -18 32
vt 17 32
vt -17 32
vt -33 1
vt -33 0
vt 22 33
vt 21 33
vt -21 33
vt -22 33
vt 33 0
vt 33 1
vt 20 33
vt -20 33
vt 19 33
vt -19 33
vt 18 33
vt -18 33
vt 17 33
vt -17 33
vt -13 2
vt -14 2
vt 9 2
vt 8 2
vt -8 2
vt -9 2
vt 10 2
vt -10 2
vt 14 2
vt 13 2
vt 15 2
vt -15 2
vt 16 2
vt -16 2
vt 20 2
vt 19 2
vt 18 2
vt 17 2
vt -17 2
vt -18 2
vt -19 2
vt -20 2
vt 24 2
vt 23 2
vt -23 2
vt -24 2
vt 25 2
vt -25 2
vt -13 3
vt -14 3
vt 9 3
vt 8 3
vt -8 3
vt -9 3
vt 10 3
vt -10 3
vt 14 3
vt 13 3
vt 15 3
vt -15 3
vt 16 3
vt -16 3
vt 20 3
vt 19 3
vt 18 3
vt 17 3
vt -17 3
vt -18 3
vt -19 3
vt -20 3
vt 24 3
vt 23 3
vt -23 3
vt -24 3
vt 25 3
vt -25 3

vn 0 0 1
vn -1 0 0
vn 0 0 -1
vn 1 0 0
vn 0 1 0
vn 0 -1 0

usemtl ProBuilderDefault
f 3/3/1 4/4/1 2/2/1 1/1/1
f 7/3/2 8/4/2 6/2/2 5/1/2
f 11/6/3 12/3/3 10/1/3 9/5/3
f 15/6/4 16/3/4 14/1/4 13/5/4
f 15/7/5 18/8/5 17/5/5 16/1/5
f 14/1/6 20/2/6 19/9/6 13/7/6
f 21/10/6 22/11/6 19/9/6 20/2/6
f 23/12/1 24/10/1 2/2/1 4/4/1
f 25/13/3 26/14/3 11/6/3 9/5/3
f 27/15/5 28/13/5 17/5/5 18/8/5
f 29/16/6 30/17/6 22/11/6 21/10/6
f 31/18/1 32/16/1 24/10/1 23/12/1
f 33/19/3 34/20/3 26/14/3 25/13/3
f 35/21/5 36/19/5 28/13/5 27/15/5
f 37/22/6 38/23/6 30/17/6 29/16/6
f 39/24/1 40/22/1 32/16/1 31/18/1
f 41/25/3 42/26/3 34/20/3 33/19/3
f 43/27/5 44/25/5 36/19/5 35/21/5
f 45/28/6 46/29/6 38/23/6 37/22/6
f 47/30/1 48/28/1 40/22/1 39/24/1
f 49/31/3 50/32/3 42/26/3 41/25/3
f 51/33/5 52/31/5 44/25/5 43/27/5
f 53/34/6 54/35/6 46/29/6 45/28/6
f 55/36/1 56/34/1 48/28/1 47/30/1
f 57/37/3 58/38/3 50/32/3 49/31/3
f 59/39/5 60/37/5 52/31/5 51/33/5
f 5/40/6 6/41/6 54/35/6 53/34/6
f 61/42/1 62/40/1 56/34/1 55/36/1
f 63/43/3 64/44/3 58/38/3 57/37/3
f 8/45/5 7/43/5 60/37/5 59/39/5
f 65/46/6 66/47/6 13/7/6 19/9/6
f 67/48/6 65/46/6 19/9/6 22/11/6
f 66/13/4 68/14/4 15/6/4 13/5/4
f 68/47/5 69/49/5 18/8/5 15/7/5
f 69/49/5 70/50/5 27/15/5 18/8/5
f 71/51/6 67/48/6 22/11/6 30/17/6
f 70/50/5 72/52/5 35/21/5 27/15/5
f 73/53/6 71/51/6 30/17/6 38/23/6
f 72/52/5 74/54/5 43/27/5 35/21/5
f 75/55/6 73/53/6 38/23/6 46/29/6
f 74/54/5 76/56/5 51/33/5 43/27/5
f 77/57/6 75/55/6 46/29/6 54/35/6
f 76/56/5 78/58/5 59/39/5 51/33/5
f 79/59/6 77/57/6 54/35/6 6/41/6
f 78/58/5 80/60/5 8/45/5 59/39/5
f 80/12/2 79/10/2 6/2/2 8/4/2
f 81/61/6 82/62/6 66/47/6 65/46/6
f 83/63/6 81/61/6 65/46/6 67/48/6
f 82/19/4 84/20/4 68/14/4 66/13/4
f 84/62/5 85/64/5 69/49/5 68/47/5
f 85/64/5 86/65/5 70/50/5 69/49/5
f 87/66/6 83/63/6 67/48/6 71/51/6
f 86/65/5 88/67/5 72/52/5 70/50/5
f 89/68/6 87/66/6 71/51/6 73/53/6
f 88/67/5 90/69/5 74/54/5 72/52/5
f 91/70/6 89/68/6 73/53/6 75/55/6
f 90/69/5 92/71/5 76/56/5 74/54/5
f 93/72/6 91/70/6 75/55/6 77/57/6
f 92/71/5 94/73/5 78/58/5 76/56/5
f 95/74/6 93/72/6 77/57/6 79/59/6
f 94/73/5 96/75/5 80/60/5 78/58/5
f 96/18/2 95/16/2 79/10/2 80/12/2
f 97/76/6 98/77/6 82/62/6 81/61/6
f 99/78/6 97/76/6 81/61/6 83/63/6
f 98/25/4 100/26/4 84/20/4 82/19/4
f 100/77/5 101/79/5 85/64/5 84/62/5
f 101/79/5 102/80/5 86/65/5 85/64/5
f 103/81/6 99/78/6 83/63/6 87/66/6
f 102/80/5 104/82/5 88/67/5 86/65/5
f 105/83/6 103/81/6 87/66/6 89/68/6
f 104/82/5 106/84/5 90/69/5 88/67/5
f 107/85/6 105/83/6 89/68/6 91/70/6
f 106/84/5 108/86/5 92/71/5 90/69/5
f 109/87/6 107/85/6 91/70/6 93/72/6
f 108/86/5 110/88/5 94/73/5 92/71/5
f 111/89/6 109/87/6 93/72/6 95/74/6
f 110/88/5 112/90/5 96/75/5 94/73/5
f 112/24/2 111/22/2 95/16/2 96/18/2
f 113/91/6 114/92/6 98/77/6 97/76/6
f 115/93/6 113/91/6 97/76/6 99/78/6
f 114/31/4 116/32/4 100/26/4 98/25/4
f 116/92/5 117/94/5 101/79/5 100/77/5
f 117/94/5 118/95/5 102/80/5 101/79/5
f 119/96/6 115/93/6 99/78/6 103/81/6
f 118/95/5 120/97/5 104/82/5 102/80/5
f 121/98/6 119/96/6 103/81/6 105/83/6
f 120/97/5 122/99/5 106/84/5 104/82/5
f 123/100/6 121/98/6 105/83/6 107/85/6
f 122/99/5 124/101/5 108/86/5 106/84/5
f 125/102/6 123/100/6 107/85/6 109/87/6
f 124/101/5 126/103/5 110/88/5 108/86/5
f 127/104/6 125/102/6 109/87/6 111/89/6
f 126/103/5 128/105/5 112/90/5 110/88/5
f 128/30/2 127/28/2 111/22/2 112/24/2
f 129/106/6 130/107/6 114/92/6 113/91/6
f 131/108/6 129/106/6 113/91/6 115/93/6
f 130/37/4 132/38/4 116/32/4 114/31/4
f 132/107/5 133/109/5 117/94/5 116/92/5
f 133/109/5 134/110/5 118/95/5 117/94/5
f 135/111/6 131/108/6 115/93/6 119/96/6
f 134/110/5 136/112/5 120/97/5 118/95/5
f 137/113/6 135/111/6 119/96/6 121/98/6
f 136/112/5 138/114/5 122/99/5 120/97/5
f 139/115/6 137/113/6 121/98/6 123/100/6
f 138/114/5 140/116/5 124/101/5 122/99/5
f 141/117/6 139/115/6 123/100/6 125/102/6
f 140/116/5 142/118/5 126/103/5 124/101/5
f 143/119/6 141/117/6 125/102/6 127/104/6
f 142/118/5 144/120/5 128/105/5 126/103/5
f 144/36/2 143/34/2 127/28/2 128/30/2
f 145/121/6 146/122/6 130/107/6 129/106/6
f 147/123/6 145/121/6 129/106/6 131/108/6
f 146/43/4 148/44/4 132/38/4 130/37/4
f 148/122/5 149/124/5 133/109/5 132/107/5
f 149/124/5 150/125/5 134/110/5 133/109/5
f 151/126/6 147/123/6 131/108/6 135/111/6
f 150/125/5 152/127/5 136/112/5 134/110/5
f 153/128/6 151/126/6 135/111/6 137/113/6
f 152/127/5 154/129/5 138/114/5 136/112/5
f 155/130/6 153/128/6 137/113/6 139/115/6
f 154/129/5 156/131/5 140/116/5 138/114/5
f 157/132/6 155/130/6 139/115/6 141/117/6
f 156/131/5 158/133/5 142/118/5 140/116/5
f 159/134/6 157/132/6 141/117/6 143/119/6
f 158/133/5 160/135/5 144/120/5 142/118/5
f 160/42/2 159/40/2 143/34/2 144/36/2
f 9/136/6 10/137/6 146/122/6 145/121/6
f 25/138/6 9/136/6 145/121/6 147/123/6
f 10/139/4 12/140/4 148/44/4 146/43/4
f 12/137/5 11/141/5 149/124/5 148/122/5
f 11/141/5 26/142/5 150/125/5 149/124/5
f 33/143/6 25/138/6 147/123/6 151/126/6
f 26/142/5 34/144/5 152/127/5 150/125/5
f 41/145/6 33/143/6 151/126/6 153/128/6
f 34/144/5 42/146/5 154/129/5 152/127/5
f 49/147/6 41/145/6 153/128/6 155/130/6
f 42/146/5 50/148/5 156/131/5 154/129/5
f 57/149/6 49/147/6 155/130/6 157/132/6
f 50/148/5 58/150/5 158/133/5 156/131/5
f 63/151/6 57/149/6 157/132/6 159/134/6
f 58/150/5 64/152/5 160/135/5 158/133/5
f 64/153/2 63/154/2 159/40/2 160/42/2
f 161/3/6 162/4/6 20/2/6 14/1/6
f 163/44/5 164/38/5 60/37/5 7/43/5
f 165/36/6 166/42/6 5/40/6 53/34/6
f 166/5/2 163/6/2 7/3/2 5/1/2
f 167/6/5 168/3/5 16/1/5 17/5/5
f 164/38/5 169/32/5 52/31/5 60/37/5
f 170/30/6 165/36/6 53/34/6 45/28/6
f 169/32/5 171/26/5 44/25/5 52/31/5
f 172/24/6 170/30/6 45/28/6 37/22/6
f 171/26/5 173/20/5 36/19/5 44/25/5
f 174/18/6 172/24/6 37/22/6 29/16/6
f 173/20/5 175/14/5 28/13/5 36/19/5
f 176/12/6 174/18/6 29/16/6 21/10/6
f 175/14/5 167/6/5 17/5/5 28/13/5
f 162/4/6 176/12/6 21/10/6 20/2/6
f 168/4/4 161/2/4 14/1/4 16/3/4
f 177/155/6 178/156/6 162/4/6 161/3/6
f 179/157/5 180/158/5 164/38/5 163/44/5
f 181/159/6 182/160/6 166/42/6 165/36/6
f 182/13/2 179/14/2 163/6/2 166/5/2
f 183/161/5 184/155/5 168/3/5 167/6/5
f 180/158/5 185/162/5 169/32/5 164/38/5
f 186/163/6 181/159/6 165/36/6 170/30/6
f 185/162/5 187/164/5 171/26/5 169/32/5
f 188/165/6 186/163/6 170/30/6 172/24/6
f 187/164/5 189/166/5 173/20/5 171/26/5
f 190/167/6 188/165/6 172/24/6 174/18/6
f 189/166/5 191/168/5 175/14/5 173/20/5
f 192/169/6 190/167/6 174/18/6 176/12/6
f 191/168/5 183/161/5 167/6/5 175/14/5
f 178/156/6 192/169/6 176/12/6 162/4/6
f 184/12/4 177/10/4 161/2/4 168/4/4
f 193/170/6 194/171/6 178/156/6 177/155/6
f 195/172/5 196/173/5 180/158/5 179/157/5
f 197/174/6 198/175/6 182/160/6 181/159/6
f 198/19/2 195/20/2 179/14/2 182/13/2
f 199/176/5 200/170/5 184/155/5 183/161/5
f 196/173/5 201/177/5 185/162/5 180/158/5
f 202/178/6 197/174/6 181/159/6 186/163/6
f 201/177/5 203/179/5 187/164/5 185/162/5
f 204/180/6 202/178/6 186/163/6 188/165/6
f 203/179/5 205/181/5 189/166/5 187/164/5
f 206/182/6 204/180/6 188/165/6 190/167/6
f 205/181/5 207/183/5 191/168/5 189/166/5
f 208/184/6 206/182/6 190/167/6 192/169/6
f 207/183/5 199/176/5 183/161/5 191/168/5
f 194/171/6 208/184/6 192/169/6 178/156/6
f 200/18/4 193/16/4 177/10/4 184/12/4
f 209/185/6 210/186/6 194/171/6 193/170/6
f 211/187/5 212/188/5 196/173/5 195/172/5
f 213/189/6 214/190/6 198/175/6 197/174/6
f 214/25/2 211/26/2 195/20/2 198/19/2
f 215/191/5 216/185/5 200/170/5 199/176/5
f 212/188/5 217/192/5 201/177/5 196/173/5
f 218/193/6 213/189/6 197/174/6 202/178/6
f 217/192/5 219/194/5 203/179/5 201/177/5
f 220/195/6 218/193/6 202/178/6 204/180/6
f 219/194/5 221/196/5 205/181/5 203/179/5
f 222/197/6 220/195/6 204/180/6 206/182/6
f 221/196/5 223/198/5 207/183/5 205/181/5
f 224/199/6 222/197/6 206/182/6 208/184/6
f 223/198/5 215/191/5 199/176/5 207/183/5
f 210/186/6 224/199/6 208/184/6 194/171/6
f 216/24/4 209/22/4 193/16/4 200/18/4
f 225/200/6 226/201/6 210/186/6 209/185/6
f 227/202/5 228/203/5 212/188/5 211/187/5
f 229/204/6 230/205/6 214/190/6 213/189/6
f 230/31/2 227/32/2 211/26/2 214/25/2
f 231/206/5 232/200/5 216/185/5 215/191/5
f 228/203/5 233/207/5 217/192/5 212/188/5
f 234/208/6 229/204/6 213/189/6 218/193/6
f 233/207/5 235/209/5 219/194/5 217/192/5
f 236/210/6 234/208/6 218/193/6 220/195/6
f 235/209/5 237/211/5 221/196/5 219/194/5
f 238/212/6 236/210/6 220/195/6 222/197/6
f 237/211/5 239/213/5 223/198/5 221/196/5
f 240/214/6 238/212/6 222/197/6 224/199/6
f 239/213/5 231/206/5 215/191/5 223/198/5
f 226/201/6 240/214/6 224/199/6 210/186/6
f 232/30/4 225/28/4 209/22/4 216/24/4
f 241/215/6 242/216/6 226/201/6 225/200/6
f 243/217/5 244/218/5 228/203/5 227/202/5
f 245/219/6 246/220/6 230/205/6 229/204/6
f 246/37/2 243/38/2 227/32/2 230/31/2
f 247/221/5 248/215/5 232/200/5 231/206/5
f 244/218/5 249/222/5 233/207/5 228/203/5
f 250/223/6 245/219/6 229/204/6 234/208/6
f 249/222/5 251/224/5 235/209/5 233/207/5
f 252/225/6 250/223/6 234/208/6 236/210/6
f 251/224/5 253/226/5 237/211/5 235/209/5
f 254/227/6 252/225/6 236/210/6 238/212/6
f 253/226/5 255/228/5 239/213/5 237/211/5
f 256/229/6 254/227/6 238/212/6 240/214/6
f 255/228/5 247/221/5 231/206/5 239/213/5
f 242/216/6 256/229/6 240/214/6 226/201/6
f 248/36/4 241/34/4 225/28/4 232/30/4
f 257/230/6 258/231/6 242/216/6 241/215/6
f 259/232/5 260/233/5 244/218/5 243/217/5
f 261/234/6 262/235/6 246/220/6 245/219/6
f 262/43/2 259/44/2 243/38/2 246/37/2
f 263/236/5 264/230/5 248/215/5 247/221/5
f 260/233/5 265/237/5 249/222/5 244/218/5
f 266/238/6 261/234/6 245/219/6 250/223/6
f 265/237/5 267/239/5 251/224/5 249/222/5
f 268/240/6 266/238/6 250/223/6 252/225/6
f 267/239/5 269/241/5 253/226/5 251/224/5
f 270/242/6 268/240/6 252/225/6 254/227/6
f 269/241/5 271/243/5 255/228/5 253/226/5
f 272/244/6 270/242/6 254/227/6 256/229/6
f 271/243/5 263/236/5 247/221/5 255/228/5
f 258/231/6 272/244/6 256/229/6 242/216/6
f 264/42/4 257/40/4 241/34/4 248/36/4
f 273/245/6 274/246/6 258/231/6 257/230/6
f 275/247/5 276/248/5 260/233/5 259/232/5
f 277/249/6 278/250/6 262/235/6 261/234/6
f 278/139/2 275/140/2 259/44/2 262/43/2
f 279/251/5 280/245/5 264/230/5 263/236/5
f 276/248/5 281/252/5 265/237/5 260/233/5
f 282/253/6 277/249/6 261/234/6 266/238/6
f 281/252/5 283/254/5 267/239/5 265/237/5
f 284/255/6 282/253/6 266/238/6 268/240/6
f 283/254/5 285/256/5 269/241/5 267/239/5
f 286/257/6 284/255/6 268/240/6 270/242/6
f 285/256/5 287/258/5 271/243/5 269/241/5
f 288/259/6 286/257/6 270/242/6 272/244/6
f 287/258/5 279/251/5 263/236/5 271/243/5
f 274/246/6 288/259/6 272/244/6 258/231/6
f 280/153/4 273/154/4 257/40/4 264/42/4
f 289/260/6 290/261/6 274/246/6 273/245/6
f 291/262/5 292/263/5 276/248/5 275/247/5
f 293/264/6 294/265/6 278/250/6 277/249/6
f 294/266/2 291/267/2 275/140/2 278/139/2
f 295/268/5 296/260/5 280/245/5 279/251/5
f 292/263/5 297/269/5 281/252/5 276/248/5
f 298/270/6 293/264/6 277/249/6 282/253/6
f 297/269/5 299/271/5 283/254/5 281/252/5
f 300/272/6 298/270/6 282/253/6 284/255/6
f 299/271/5 301/273/5 285/256/5 283/254/5
f 302/274/6 300/272/6 284/255/6 286/257/6
f 301/273/5 303/275/5 287/258/5 285/256/5
f 304/276/6 302/274/6 286/257/6 288/259/6
f 303/275/5 295/268/5 279/251/5 287/258/5
f 290/261/6 304/276/6 288/259/6 274/246/6
f 296/277/4 289/278/4 273/154/4 280/153/4
f 305/279/6 306/280/6 290/261/6 289/260/6
f 307/281/5 308/282/5 292/263/5 291/262/5
f 309/283/6 310/284/6 294/265/6 293/264/6
f 310/285/2 307/286/2 291/267/2 294/266/2
f 311/287/5 312/279/5 296/260/5 295/268/5
f 308/282/5 313/288/5 297/269/5 292/263/5
f 314/289/6 309/283/6 293/264/6 298/270/6
f 313/288/5 315/290/5 299/271/5 297/269/5
f 316/291/6 314/289/6 298/270/6 300/272/6
f 315/290/5 317/292/5 301/273/5 299/271/5
f 318/293/6 316/291/6 300/272/6 302/274/6
f 317/292/5 319/294/5 303/275/5 301/273/5
f 320/295/6 318/293/6 302/274/6 304/276/6
f 319/294/5 311/287/5 295/268/5 303/275/5
f 306/280/6 320/295/6 304/276/6 290/261/6
f 312/296/4 305/297/4 289/278/4 296/277/4
f 321/298/6 322/299/6 306/280/6 305/279/6
f 323/300/5 324/301/5 308/282/5 307/281/5
f 325/302/6 326/303/6 310/284/6 309/283/6
f 326/304/2 323/305/2 307/286/2 310/285/2
f 327/306/5 328/298/5 312/279/5 311/287/5
f 324/301/5 329/307/5 313/288/5 308/282/5
f 330/308/6 325/302/6 309/283/6 314/289/6
f 329/307/5 331/309/5 315/290/5 313/288/5
f 332/310/6 330/308/6 314/289/6 316/291/6
f 331/309/5 333/311/5 317/292/5 315/290/5
f 334/312/6 332/310/6 316/291/6 318/293/6
f 333/311/5 335/313/5 319/294/5 317/292/5
f 336/314/6 334/312/6 318/293/6 320/295/6
f 335/313/5 327/306/5 311/287/5 319/294/5
f 322/299/6 336/314/6 320/295/6 306/280/6
f 328/315/4 321/316/4 305/297/4 312/296/4
f 337/317/6 338/318/6 322/299/6 321/298/6
f 339/319/5 340/320/5 324/301/5 323/300/5
f 341/321/6 342/322/6 326/303/6 325/302/6
f 345/323/2 346/324/2 344/305/2 343/304/2
f 347/325/5 348/317/5 328/298/5 327/306/5
f 340/320/5 349/326/5 329/307/5 324/301/5
f 350/327/6 341/321/6 325/302/6 330/308/6
f 349/326/5 351/328/5 331/309/5 329/307/5
f 352/329/6 350/327/6 330/308/6 332/310/6
f 351/328/5 353/330/5 333/311/5 331/309/5
f 354/331/6 352/329/6 332/310/6 334/312/6
f 353/330/5 355/332/5 335/313/5 333/311/5
f 356/333/6 354/331/6 334/312/6 336/314/6
f 355/332/5 347/325/5 327/306/5 335/313/5
f 338/318/6 356/333/6 336/314/6 322/299/6
f 348/334/4 337/335/4 321/316/4 328/315/4
f 357/336/6 358/337/6 338/318/6 337/317/6
f 359/338/5 360/339/5 340/320/5 339/319/5
f 361/340/6 362/341/6 342/322/6 341/321/6
f 363/342/2 364/343/2 346/324/2 345/323/2
f 365/344/5 366/336/5 348/317/5 347/325/5
f 360/339/5 367/345/5 349/326/5 340/320/5
f 368/346/6 361/340/6 341/321/6 350/327/6
f 367/345/5 369/347/5 351/328/5 349/326/5
f 370/348/6 368/346/6 350/327/6 352/329/6
f 369/347/5 371/349/5 353/330/5 351/328/5
f 372/350/6 370/348/6 352/329/6 354/331/6
f 371/349/5 373/351/5 355/332/5 353/330/5
f 374/352/6 372/350/6 354/331/6 356/333/6
f 373/351/5 365/344/5 347/325/5 355/332/5
f 358/337/6 374/352/6 356/333/6 338/318/6
f 366/353/4 357/354/4 337/335/4 348/334/4
f 375/355/6 376/356/6 358/337/6 357/336/6
f 377/357/5 378/358/5 360/339/5 359/338/5
f 379/359/6 380/360/6 362/341/6 361/340/6
f 381/361/2 382/362/2 364/343/2 363/342/2
f 383/363/5 384/355/5 366/336/5 365/344/5
f 378/358/5 385/364/5 367/345/5 360/339/5
f 386/365/6 379/359/6 361/340/6 368/346/6
f 385/364/5 387/366/5 369/347/5 367/345/5
f 388/367/6 386/365/6 368/346/6 370/348/6
f 387/366/5 389/368/5 371/349/5 369/347/5
f 390/369/6 388/367/6 370/348/6 372/350/6
f 389/368/5 391/370/5 373/351/5 371/349/5
f 392/371/6 390/369/6 372/350/6 374/352/6
f 391/370/5 383/363/5 365/344/5 373/351/5
f 376/356/6 392/371/6 374/352/6 358/337/6
f 384/372/4 375/373/4 357/354/4 366/353/4
f 393/374/6 394/375/6 376/356/6 375/355/6
f 395/376/5 396/377/5 378/358/5 377/357/5
f 397/378/6 398/379/6 380/360/6 379/359/6
f 399/380/2 400/381/2 382/362/2 381/361/2
f 401/382/5 402/374/5 384/355/5 383/363/5
f 396/377/5 403/383/5 385/364/5 378/358/5
f 404/384/6 397/378/6 379/359/6 386/365/6
f 403/383/5 405/385/5 387/366/5 385/364/5
f 406/386/6 404/384/6 386/365/6 388/367/6
f 405/385/5 407/387/5 389/368/5 387/366/5
f 408/388/6 406/386/6 388/367/6 390/369/6
f 407/387/5 409/389/5 391/370/5 389/368/5
f 410/390/6 408/388/6 390/369/6 392/371/6
f 409/389/5 401/382/5 383/363/5 391/370/5
f 394/375/6 410/390/6 392/371/6 376/356/6
f 402/391/4 393/392/4 375/373/4 384/372/4
f 411/393/6 412/394/6 394/375/6 393/374/6
f 413/395/5 414/396/5 396/377/5 395/376/5
f 415/397/6 416/398/6 398/379/6 397/378/6
f 417/399/2 418/400/2 400/381/2 399/380/2
f 419/401/5 420/393/5 402/374/5 401/382/5
f 414/396/5 421/402/5 403/383/5 396/377/5
f 422/403/6 415/397/6 397/378/6 404/384/6
f 421/402/5 423/404/5 405/385/5 403/383/5
f 424/405/6 422/403/6 404/384/6 406/386/6
f 423/404/5 425/406/5 407/387/5 405/385/5
f 426/407/6 424/405/6 406/386/6 408/388/6
f 425/406/5 427/408/5 409/389/5 407/387/5
f 428/409/6 426/407/6 408/388/6 410/390/6
f 427/408/5 419/401/5 401/382/5 409/389/5
f 412/394/6 428/409/6 410/390/6 394/375/6
f 420/410/4 411/411/4 393/392/4 402/391/4
f 429/412/6 430/413/6 412/394/6 411/393/6
f 431/414/5 432/415/5 414/396/5 413/395/5
f 433/416/6 434/417/6 416/398/6 415/397/6
f 434/418/2 431/419/2 413/400/2 416/399/2
f 435/420/5 436/412/5 420/393/5 419/401/5
f 432/415/5 437/421/5 421/402/5 414/396/5
f 438/422/6 433/416/6 415/397/6 422/403/6
f 437/421/5 439/423/5 423/404/5 421/402/5
f 440/424/6 438/422/6 422/403/6 424/405/6
f 439/423/5 441/425/5 425/406/5 423/404/5
f 442/426/6 440/424/6 424/405/6 426/407/6
f 441/425/5 443/427/5 427/408/5 425/406/5
f 444/428/6 442/426/6 426/407/6 428/409/6
f 443/427/5 435/420/5 419/401/5 427/408/5
f 430/413/6 444/428/6 428/409/6 412/394/6
f 436/429/4 429/430/4 411/411/4 420/410/4
f 1/431/6 2/432/6 430/413/6 429/412/6
f 61/433/5 55/434/5 432/415/5 431/414/5
f 56/435/6 62/436/6 434/417/6 433/416/6
f 62/437/2 61/438/2 431/419/2 434/418/2
f 4/439/5 3/431/5 436/412/5 435/420/5
f 55/434/5 47/440/5 437/421/5 432/415/5
f 48/441/6 56/435/6 433/416/6 438/422/6
f 47/440/5 39/442/5 439/423/5 437/421/5
f 40/443/6 48/441/6 438/422/6 440/424/6
f 39/442/5 31/444/5 441/425/5 439/423/5
f 32/445/6 40/443/6 440/424/6 442/426/6
f 31/444/5 23/446/5 443/427/5 441/425/5
f 24/447/6 32/445/6 442/426/6 444/428/6
f 23/446/5 4/439/5 435/420/5 443/427/5
f 2/432/6 24/447/6 444/428/6 430/413/6
f 3/448/4 1/449/4 429/430/4 436/429/4
f 445/139/3 446/140/3 323/44/3 326/43/3
f 447/450/6 445/451/6 326/303/6 342/322/6
f 446/452/5 448/453/5 339/319/5 323/300/5
f 449/454/6 447/450/6 342/322/6 362/341/6
f 448/453/5 450/455/5 359/338/5 339/319/5
f 451/456/6 449/454/6 362/341/6 380/360/6
f 450/455/5 452/457/5 377/357/5 359/338/5
f 453/458/6 451/456/6 380/360/6 398/379/6
f 452/457/5 454/459/5 395/376/5 377/357/5
f 455/460/6 453/458/6 398/379/6 416/398/6
f 454/459/5 456/461/5 413/395/5 395/376/5
f 456/153/1 455/154/1 416/40/1 413/42/1
f 457/266/3 458/267/3 446/140/3 445/139/3
f 459/462/6 457/463/6 445/451/6 447/450/6
f 458/464/5 460/465/5 448/453/5 446/452/5
f 461/466/6 459/462/6 447/450/6 449/454/6
f 460/465/5 462/467/5 450/455/5 448/453/5
f 463/468/6 461/466/6 449/454/6 451/456/6
f 466/467/5 467/469/5 465/457/5 464/455/5
f 468/470/6 463/468/6 451/456/6 453/458/6
f 469/469/5 470/471/5 454/459/5 452/457/5
f 471/472/6 468/470/6 453/458/6 455/460/6
f 470/471/5 472/473/5 456/461/5 454/459/5
f 472/277/1 471/278/1 455/154/1 456/153/1
f 473/285/3 474/286/3 458/267/3 457/266/3
f 475/474/6 473/475/6 457/463/6 459/462/6
f 474/476/5 476/477/5 460/465/5 458/464/5
f 477/478/6 475/474/6 459/462/6 461/466/6
f 476/477/5 478/479/5 462/467/5 460/465/5
f 479/480/6 477/478/6 461/466/6 463/468/6
f 480/479/5 481/481/5 467/469/5 466/467/5
f 482/482/6 479/480/6 463/468/6 468/470/6
f 483/481/5 484/483/5 470/471/5 469/469/5
f 485/484/6 482/482/6 468/470/6 471/472/6
f 484/483/5 486/485/5 472/473/5 470/471/5
f 486/296/1 485/297/1 471/278/1 472/277/1
f 487/304/3 488/305/3 474/286/3 473/285/3
f 489/486/6 487/487/6 473/475/6 475/474/6
f 488/488/5 490/489/5 476/477/5 474/476/5
f 491/490/6 489/486/6 475/474/6 477/478/6
f 490/489/5 492/491/5 478/479/5 476/477/5
f 493/492/6 491/490/6 477/478/6 479/480/6
f 492/491/5 494/493/5 483/481/5 478/479/5
f 495/494/6 493/492/6 479/480/6 482/482/6
f 494/493/5 496/495/5 484/483/5 483/481/5
f 497/496/6 495/494/6 482/482/6 485/484/6
f 496/495/5 498/497/5 486/485/5 484/483/5
f 498/315/1 497/316/1 485/297/1 486/296/1
f 499/323/3 500/324/3 488/305/3 487/304/3
f 501/498/6 499/499/6 487/487/6 489/486/6
f 500/500/5 502/501/5 490/489/5 488/488/5
f 503/502/6 501/498/6 489/486/6 491/490/6
f 502/501/5 504/503/5 492/491/5 490/489/5
f 505/504/6 503/502/6 491/490/6 493/492/6
f 504/503/5 506/505/5 494/493/5 492/491/5
f 507/506/6 505/504/6 493/492/6 495/494/6
f 506/505/5 508/507/5 496/495/5 494/493/5
f 509/508/6 507/506/6 495/494/6 497/496/6
f 508/507/5 510/509/5 498/497/5 496/495/5
f 510/334/1 509/335/1 497/316/1 498/315/1
f 511/342/3 512/343/3 500/324/3 499/323/3
f 513/510/6 511/511/6 499/499/6 501/498/6
f 512/512/5 514/513/5 502/501/5 500/500/5
f 515/514/6 513/510/6 501/498/6 503/502/6
f 514/513/5 516/515/5 504/503/5 502/501/5
f 517/516/6 515/514/6 503/502/6 505/504/6
f 516/515/5 518/517/5 506/505/5 504/503/5
f 519/518/6 517/516/6 505/504/6 507/506/6
f 518/517/5 520/519/5 508/507/5 506/505/5
f 521/520/6 519/518/6 507/506/6 509/508/6
f 520/519/5 522/521/5 510/509/5 508/507/5
f 522/353/1 521/354/1 509/335/1 510/334/1
f 523/361/3 524/362/3 512/343/3 511/342/3
f 525/522/6 523/523/6 511/511/6 513/510/6
f 524/524/5 526/525/5 514/513/5 512/512/5
f 527/526/6 525/522/6 513/510/6 515/514/6
f 526/525/5 528/527/5 516/515/5 514/513/5
f 529/528/6 527/526/6 515/514/6 517/516/6
f 528/527/5 530/529/5 518/517/5 516/515/5
f 531/530/6 529/528/6 517/516/6 519/518/6
f 530/529/5 532/531/5 520/519/5 518/517/5
f 533/532/6 531/530/6 519/518/6 521/520/6
f 532/531/5 534/533/5 522/521/5 520/519/5
f 534/372/1 533/373/1 521/354/1 522/353/1
f 535/380/3 536/381/3 524/362/3 523/361/3
f 537/534/6 535/535/6 523/523/6 525/522/6
f 536/536/5 538/537/5 526/525/5 524/524/5
f 539/538/6 537/534/6 525/522/6 527/526/6
f 538/537/5 540/539/5 528/527/5 526/525/5
f 541/540/6 539/538/6 527/526/6 529/528/6
f 544/539/5 545/541/5 543/529/5 542/527/5
f 546/542/6 541/540/6 529/528/6 531/530/6
f 547/541/5 548/543/5 532/531/5 530/529/5
f 549/544/6 546/542/6 531/530/6 533/532/6
f 548/543/5 550/545/5 534/533/5 532/531/5
f 550/391/1 549/392/1 533/373/1 534/372/1
f 551/399/3 552/400/3 536/381/3 535/380/3
f 553/546/6 551/547/6 535/535/6 537/534/6
f 552/548/5 554/549/5 538/537/5 536/536/5
f 555/550/6 553/546/6 537/534/6 539/538/6
f 554/549/5 556/551/5 540/539/5 538/537/5
f 557/552/6 555/550/6 539/538/6 541/540/6
f 558/551/5 559/553/5 545/541/5 544/539/5
f 560/554/6 557/552/6 541/540/6 546/542/6
f 561/553/5 562/555/5 548/543/5 547/541/5
f 563/556/6 560/554/6 546/542/6 549/544/6
f 562/555/5 564/557/5 550/545/5 548/543/5
f 564/410/1 563/411/1 549/392/1 550/391/1
f 565/418/3 566/419/3 552/400/3 551/399/3
f 567/558/6 565/559/6 551/547/6 553/546/6
f 566/560/5 568/561/5 554/549/5 552/548/5
f 569/562/6 567/558/6 553/546/6 555/550/6
f 568/561/5 570/563/5 556/551/5 554/549/5
f 571/564/6 569/562/6 555/550/6 557/552/6
f 570/563/5 572/565/5 561/553/5 556/551/5
f 573/566/6 571/564/6 557/552/6 560/554/6
f 572/565/5 574/567/5 562/555/5 561/553/5
f 575/568/6 573/566/6 560/554/6 563/556/6
f 574/567/5 576/569/5 564/557/5 562/555/5
f 576/429/1 575/430/1 563/411/1 564/410/1
f 577/437/3 578/438/3 566/419/3 565/418/3
f 579/570/6 577/571/6 565/559/6 567/558/6
f 578/572/5 580/573/5 568/561/5 566/560/5
f 581/574/6 579/570/6 567/558/6 569/562/6
f 580/573/5 582/575/5 570/563/5 568/561/5
f 583/576/6 581/574/6 569/562/6 571/564/6
f 582/575/5 584/577/5 572/565/5 570/563/5
f 585/578/6 583/576/6 571/564/6 573/566/6
f 584/577/5 586/579/5 574/567/5 572/565/5
f 587/580/6 585/578/6 573/566/6 575/568/6
f 586/579/5 588/581/5 576/569/5 574/567/5
f 591/448/1 592/449/1 590/430/1 589/429/1
f 593/582/3 594/583/3 578/438/3 577/437/3
f 595/584/6 593/585/6 577/571/6 579/570/6
f 594/586/5 596/587/5 580/573/5 578/572/5
f 597/588/6 595/584/6 579/570/6 581/574/6
f 596/587/5 598/589/5 582/575/5 580/573/5
f 599/590/6 597/588/6 581/574/6 583/576/6
f 598/589/5 600/591/5 584/577/5 582/575/5
f 601/592/6 599/590/6 583/576/6 585/578/6
f 600/591/5 602/593/5 586/579/5 584/577/5
f 603/594/6 601/592/6 585/578/6 587/580/6
f 602/593/5 604/595/5 588/581/5 586/579/5
f 605/596/3 606/597/3 594/583/3 593/582/3
f 607/598/6 605/599/6 593/585/6 595/584/6
f 606/600/5 608/601/5 596/587/5 594/586/5
f 609/602/6 607/598/6 595/584/6 597/588/6
f 608/601/5 610/603/5 598/589/5 596/587/5
f 611/604/6 609/602/6 597/588/6 599/590/6
f 610/603/5 612/605/5 600/591/5 598/589/5
f 613/606/6 611/604/6 599/590/6 601/592/6
f 612/605/5 614/607/5 602/593/5 600/591/5
f 615/608/6 613/606/6 601/592/6 603/594/6
f 614/607/5 616/609/5 604/595/5 602/593/5
f 617/610/3 618/611/3 606/597/3 605/596/3
f 619/612/6 617/613/6 605/599/6 607/598/6
f 618/614/5 620/615/5 608/601/5 606/600/5
f 621/616/6 619/612/6 607/598/6 609/602/6
f 620/615/5 622/617/5 610/603/5 608/601/5
f 623/618/6 621/616/6 609/602/6 611/604/6
f 622/617/5 624/619/5 612/605/5 610/603/5
f 625/620/6 623/618/6 611/604/6 613/606/6
f 624/619/5 626/621/5 614/607/5 612/605/5
f 627/622/6 625/620/6 613/606/6 615/608/6
f 626/621/5 628/623/5 616/609/5 614/607/5
f 343/624/3 344/625/3 618/611/3 617/610/3
f 345/626/6 343/627/6 617/613/6 619/612/6
f 344/628/5 346/629/5 620/615/5 618/614/5
f 363/630/6 345/626/6 619/612/6 621/616/6
f 346/629/5 364/631/5 622/617/5 620/615/5
f 381/632/6 363/630/6 621/616/6 623/618/6
f 364/631/5 382/633/5 624/619/5 622/617/5
f 399/634/6 381/632/6 623/618/6 625/620/6
f 382/633/5 400/635/5 626/621/5 624/619/5
f 417/636/6 399/634/6 625/620/6 627/622/6
f 400/635/5 418/637/5 628/623/5 626/621/5
f 631/640/1 632/641/1 630/639/1 629/638/1
f 633/429/4 634/430/4 575/411/4 576/410/4
f 635/642/5 636/643/5 628/623/5 418/637/5
f 637/644/6 638/645/6 417/636/6 627/622/6
f 638/418/2 635/419/2 418/400/2 417/399/2
f 636/643/5 639/646/5 616/609/5 628/623/5
f 640/647/6 637/644/6 627/622/6 615/608/6
f 639/646/5 641/648/5 604/595/5 616/609/5
f 642/649/6 640/647/6 615/608/6 603/594/6
f 641/648/5 643/650/5 588/581/5 604/595/5
f 644/651/6 642/649/6 603/594/6 587/580/6
f 643/650/5 633/652/5 576/569/5 588/581/5
f 634/653/6 644/651/6 587/580/6 575/568/6
f 645/448/4 646/449/4 634/430/4 633/429/4
f 647/654/5 648/655/5 636/643/5 635/642/5
f 649/656/6 650/657/6 638/645/6 637/644/6
f 650/437/2 647/438/2 635/419/2 638/418/2
f 648/655/5 651/658/5 639/646/5 636/643/5
f 652/659/6 649/656/6 637/644/6 640/647/6
f 655/658/5 656/660/5 654/648/5 653/646/5
f 657/661/6 652/659/6 640/647/6 642/649/6
f 658/660/5 659/662/5 643/650/5 641/648/5
f 660/663/6 657/661/6 642/649/6 644/651/6
f 659/662/5 645/664/5 633/652/5 643/650/5
f 646/665/6 660/663/6 644/651/6 634/653/6
f 661/666/4 662/667/4 646/449/4 645/448/4
f 663/668/5 664/669/5 648/655/5 647/654/5
f 665/670/6 666/671/6 650/657/6 649/656/6
f 666/582/2 663/583/2 647/438/2 650/437/2
f 664/669/5 667/672/5 651/658/5 648/655/5
f 668/673/6 665/670/6 649/656/6 652/659/6
f 669/672/5 670/674/5 656/660/5 655/658/5
f 671/675/6 668/673/6 652/659/6 657/661/6
f 672/674/5 673/676/5 659/662/5 658/660/5
f 674/677/6 671/675/6 657/661/6 660/663/6
f 673/676/5 661/678/5 645/664/5 659/662/5
f 662/679/6 674/677/6 660/663/6 646/665/6
f 675/680/4 676/681/4 662/667/4 661/666/4
f 677/682/5 678/683/5 664/669/5 663/668/5
f 679/684/6 680/685/6 666/671/6 665/670/6
f 680/596/2 677/597/2 663/583/2 666/582/2
f 678/683/5 681/686/5 667/672/5 664/669/5
f 682/687/6 679/684/6 665/670/6 668/673/6
f 681/686/5 683/688/5 672/674/5 667/672/5
f 684/689/6 682/687/6 668/673/6 671/675/6
f 683/688/5 685/690/5 673/676/5 672/674/5
f 686/691/6 684/689/6 671/675/6 674/677/6
f 685/690/5 675/692/5 661/678/5 673/676/5
f 676/693/6 686/691/6 674/677/6 662/679/6
f 687/638/4 688/639/4 676/681/4 675/680/4
f 689/694/5 690/695/5 678/683/5 677/682/5
f 691/696/6 692/697/6 680/685/6 679/684/6
f 692/610/2 689/611/2 677/597/2 680/596/2
f 690/695/5 693/698/5 681/686/5 678/683/5
f 694/699/6 691/696/6 679/684/6 682/687/6
f 693/698/5 695/700/5 683/688/5 681/686/5
f 696/701/6 694/699/6 682/687/6 684/689/6
f 695/700/5 697/702/5 685/690/5 683/688/5
f 698/703/6 696/701/6 684/689/6 686/691/6
f 697/702/5 687/704/5 675/692/5 685/690/5
f 688/705/6 698/703/6 686/691/6 676/693/6
f 699/640/4 700/641/4 688/639/4 687/638/4
f 701/706/5 702/707/5 690/695/5 689/694/5
f 703/708/6 704/709/6 692/697/6 691/696/6
f 704/624/2 701/625/2 689/611/2 692/610/2
f 702/707/5 705/710/5 693/698/5 690/695/5
f 706/711/6 703/708/6 691/696/6 694/699/6
f 705/710/5 707/712/5 695/700/5 693/698/5
f 708/713/6 706/711/6 694/699/6 696/701/6
f 707/712/5 709/714/5 697/702/5 695/700/5
f 710/715/6 708/713/6 696/701/6 698/703/6
f 709/714/5 699/716/5 687/704/5 697/702/5
f 700/717/6 710/715/6 698/703/6 688/705/6
f 711/718/4 712/719/4 700/641/4 699/640/4
f 713/720/5 714/721/5 702/707/5 701/706/5
f 715/722/6 716/723/6 704/709/6 703/708/6
f 716/724/2 713/725/2 701/625/2 704/624/2
f 714/721/5 717/726/5 705/710/5 702/707/5
f 718/727/6 715/722/6 703/708/6 706/711/6
f 717/726/5 719/728/5 707/712/5 705/710/5
f 720/729/6 718/727/6 706/711/6 708/713/6
f 719/728/5 721/730/5 709/714/5 707/712/5
f 722/731/6 720/729/6 708/713/6 710/715/6
f 721/730/5 711/732/5 699/716/5 709/714/5
f 712/733/6 722/731/6 710/715/6 700/717/6
f 723/734/4 724/735/4 712/719/4 711/718/4
f 725/736/5 726/737/5 714/721/5 713/720/5
f 727/738/6 728/739/6 716/723/6 715/722/6
f 728/740/2 725/741/2 713/725/2 716/724/2
f 726/737/5 729/742/5 717/726/5 714/721/5
f 730/743/6 727/738/6 715/722/6 718/727/6
f 733/742/5 734/744/5 732/728/5 731/726/5
f 735/745/6 730/743/6 718/727/6 720/729/6
f 736/744/5 737/746/5 721/730/5 719/728/5
f 738/747/6 735/745/6 720/729/6 722/731/6
f 737/746/5 723/748/5 711/732/5 721/730/5
f 724/749/6 738/747/6 722/731/6 712/733/6
f 739/750/4 740/751/4 724/735/4 723/734/4
f 741/752/5 742/753/5 726/737/5 725/736/5
f 743/754/6 744/755/6 728/739/6 727/738/6
f 744/756/2 741/757/2 725/741/2 728/740/2
f 742/753/5 745/758/5 729/742/5 726/737/5
f 746/759/6 743/754/6 727/738/6 730/743/6
f 747/758/5 748/760/5 734/744/5 733/742/5
f 749/761/6 746/759/6 730/743/6 735/745/6
f 750/760/5 751/762/5 737/746/5 736/744/5
f 752/763/6 749/761/6 735/745/6 738/747/6
f 751/762/5 739/764/5 723/748/5 737/746/5
f 740/765/6 752/763/6 738/747/6 724/749/6
f 753/766/4 754/767/4 740/751/4 739/750/4
f 755/768/5 756/769/5 742/753/5 741/752/5
f 757/770/6 758/771/6 744/755/6 743/754/6
f 758/772/2 755/773/2 741/757/2 744/756/2
f 756/769/5 759/774/5 745/758/5 742/753/5
f 760/775/6 757/770/6 743/754/6 746/759/6
f 759/774/5 761/776/5 750/760/5 745/758/5
f 762/777/6 760/775/6 746/759/6 749/761/6
f 761/776/5 763/778/5 751/762/5 750/760/5
f 764/779/6 762/777/6 749/761/6 752/763/6
f 763/778/5 753/780/5 739/764/5 751/762/5
f 754/781/6 764/779/6 752/763/6 740/765/6
f 765/782/4 766/783/4 754/767/4 753/766/4
f 767/784/5 768/785/5 756/769/5 755/768/5
f 769/786/6 770/787/6 758/771/6 757/770/6
f 770/788/2 767/789/2 755/773/2 758/772/2
f 768/785/5 771/790/5 759/774/5 756/769/5
f 772/791/6 769/786/6 757/770/6 760/775/6
f 771/790/5 773/792/5 761/776/5 759/774/5
f 774/793/6 772/791/6 760/775/6 762/777/6
f 773/792/5 775/794/5 763/778/5 761/776/5
f 776/795/6 774/793/6 762/777/6 764/779/6
f 775/794/5 765/796/5 753/780/5 763/778/5
f 766/797/6 776/795/6 764/779/6 754/781/6
f 777/798/4 778/799/4 766/783/4 765/782/4
f 779/800/5 780/801/5 768/785/5 767/784/5
f 781/802/6 782/803/6 770/787/6 769/786/6
f 782/804/2 779/805/2 767/789/2 770/788/2
f 780/801/5 783/806/5 771/790/5 768/785/5
f 784/807/6 781/802/6 769/786/6 772/791/6
f 783/806/5 785/808/5 773/792/5 771/790/5
f 786/809/6 784/807/6 772/791/6 774/793/6
f 785/808/5 787/810/5 775/794/5 773/792/5
f 788/811/6 786/809/6 774/793/6 776/795/6
f 787/810/5 777/812/5 765/796/5 775/794/5
f 778/813/6 788/811/6 776/795/6 766/797/6
f 789/814/4 790/815/4 778/799/4 777/798/4
f 791/816/5 792/817/5 780/801/5 779/800/5
f 793/818/6 794/819/6 782/803/6 781/802/6
f 794/820/2 791/821/2 779/805/2 782/804/2
f 792/817/5 795/822/5 783/806/5 780/801/5
f 796/823/6 793/818/6 781/802/6 784/807/6
f 795/822/5 797/824/5 785/808/5 783/806/5
f 798/825/6 796/823/6 784/807/6 786/809/6
f 797/824/5 799/826/5 787/810/5 785/808/5
f 800/827/6 798/825/6 786/809/6 788/811/6
f 799/826/5 789/828/5 777/812/5 787/810/5
f 790/829/6 800/827/6 788/811/6 778/813/6
f 801/830/4 802/831/4 790/815/4 789/814/4
f 803/832/5 804/833/5 792/817/5 791/816/5
f 805/834/6 806/835/6 794/819/6 793/818/6
f 806/836/2 803/837/2 791/821/2 794/820/2
f 804/833/5 807/838/5 795/822/5 792/817/5
f 808/839/6 805/834/6 793/818/6 796/823/6
f 807/838/5 809/840/5 797/824/5 795/822/5
f 810/841/6 808/839/6 796/823/6 798/825/6
f 809/840/5 811/842/5 799/826/5 797/824/5
f 812/843/6 810/841/6 798/825/6 800/827/6
f 811/842/5 801/844/5 789/828/5 799/826/5
f 802/845/6 812/843/6 800/827/6 790/829/6
f 813/846/4 814/847/4 802/831/4 801/830/4
f 815/848/5 816/849/5 804/833/5 803/832/5
f 817/850/6 818/851/6 806/835/6 805/834/6
f 818/852/2 815/853/2 803/837/2 806/836/2
f 816/849/5 819/854/5 807/838/5 804/833/5
f 820/855/6 817/850/6 805/834/6 808/839/6
f 819/854/5 821/856/5 809/840/5 807/838/5
f 822/857/6 820/855/6 808/839/6 810/841/6
f 821/856/5 823/858/5 811/842/5 809/840/5
f 824/859/6 822/857/6 810/841/6 812/843/6
f 823/858/5 813/860/5 801/844/5 811/842/5
f 814/861/6 824/859/6 812/843/6 802/845/6
f 825/862/4 826/863/4 814/847/4 813/846/4
f 827/864/5 828/865/5 816/849/5 815/848/5
f 829/866/6 830/867/6 818/851/6 817/850/6
f 830/868/2 827/869/2 815/853/2 818/852/2
f 828/865/5 831/870/5 819/854/5 816/849/5
f 832/871/6 829/866/6 817/850/6 820/855/6
f 831/870/5 833/872/5 821/856/5 819/854/5
f 834/873/6 832/871/6 820/855/6 822/857/6
f 833/872/5 835/874/5 823/858/5 821/856/5
f 836/875/6 834/873/6 822/857/6 824/859/6
f 835/874/5 825/876/5 813/860/5 823/858/5
f 826/877/6 836/875/6 824/859/6 814/861/6
f 589/878/4 590/879/4 826/863/4 825/862/4
f 631/880/5 629/881/5 828/865/5 827/864/5
f 630/882/6 632/883/6 830/867/6 829/866/6
f 632/884/2 631/885/2 827/869/2 830/868/2
f 629/881/5 837/886/5 831/870/5 828/865/5
f 838/887/6 630/882/6 829/866/6 832/871/6
f 837/886/5 839/888/5 833/872/5 831/870/5
f 840/889/6 838/887/6 832/871/6 834/873/6
f 839/888/5 591/890/5 835/874/5 833/872/5
f 592/891/6 840/889/6 834/873/6 836/875/6
f 591/890/5 589/892/5 825/876/5 835/874/5
f 590/893/6 592/891/6 836/875/6 826/877/6
f 837/680/1 629/638/1 630/639/1 838/681/1
f 839/666/1 837/680/1 838/681/1 840/667/1
f 591/448/1 839/666/1 840/667/1 592/449/1
f 841/894/4 842/895/4 452/372/4 450/353/4
f 843/896/3 841/897/3 450/140/3 462/267/3
f 842/898/1 844/899/1 469/277/1 452/153/1
f 845/900/3 843/896/3 462/267/3 478/286/3
f 844/899/1 846/901/1 483/296/1 469/277/1
f 846/902/2 845/903/2 478/343/2 483/362/2
f 847/894/4 848/895/4 530/372/4 528/353/4
f 849/904/3 847/902/3 528/362/3 540/381/3
f 848/895/1 850/905/1 547/391/1 530/372/1
f 851/906/3 849/904/3 540/381/3 556/400/3
f 850/905/1 852/907/1 561/410/1 547/391/1
f 852/902/2 851/903/2 556/343/2 561/362/2
f 853/908/3 854/909/3 641/583/3 639/597/3
f 855/910/2 853/911/2 639/419/2 651/438/2
f 854/912/4 856/913/4 658/448/4 641/429/4
f 857/909/2 855/910/2 651/438/2 667/583/2
f 856/913/4 858/914/4 672/666/4 658/448/4
f 858/914/1 857/915/1 667/680/1 672/666/1
f 859/908/3 860/909/3 719/583/3 717/597/3
f 861/916/2 859/917/2 717/725/2 729/741/2
f 860/918/4 862/919/4 736/734/4 719/718/4
f 863/920/2 861/916/2 729/741/2 745/757/2
f 862/919/4 864/921/4 750/750/4 736/734/4
f 864/914/1 863/915/1 745/680/1 750/666/1
f 464/922/4 465/923/4 842/895/4 841/894/4
f 466/924/3 464/925/3 841/897/3 843/896/3
f 465/926/1 467/927/1 844/899/1 842/898/1
f 480/928/3 466/924/3 843/896/3 845/900/3
f 467/927/1 481/929/1 846/901/1 844/899/1
f 481/930/2 480/931/2 845/903/2 846/902/2
f 542/922/4 543/923/4 848/895/4 847/894/4
f 544/932/3 542/930/3 847/902/3 849/904/3
f 543/923/1 545/933/1 850/905/1 848/895/1
f 558/934/3 544/932/3 849/904/3 851/906/3
f 545/933/1 559/935/1 852/907/1 850/905/1
f 559/930/2 558/931/2 851/903/2 852/902/2
f 653/936/3 654/937/3 854/909/3 853/908/3
f 655/938/2 653/939/2 853/911/2 855/910/2
f 654/940/4 656/941/4 856/913/4 854/912/4
f 669/937/2 655/938/2 855/910/2 857/909/2
f 656/941/4 670/942/4 858/914/4 856/913/4
f 670/942/1 669/943/1 857/915/1 858/914/1
f 731/936/3 732/937/3 860/909/3 859/908/3
f 733/944/2 731/945/2 859/917/2 861/916/2
f 732/946/4 734/947/4 862/919/4 860/918/4
f 747/948/2 733/944/2 861/916/2 863/920/2
f 734/947/4 748/949/4 864/921/4 862/919/4
f 748/942/1 747/943/1 863/915/1 864/914/1

