# ProBuilder 4.5.2
# https://unity3d.com/unity/features/worldbuilding/probuilder
# 12.04.2022 15:29:16

mtllib ./Restrooms.mtl
o Restrooms

g Restrooms
v 0 0 0
v -1 0 0
v 0 1 0
v -1 1 0
v -20 0 0
v -20 0 -1
v -20 1 0
v -20 1 -1
v -1 0 -8
v 0 0 -8
v -1 1 -8
v 0 1 -8
v 0 0 -1
v 0 1 -1
v -1 1 -1
v -1 0 -1
v -2 0 0
v -2 0 -1
v -2 1 0
v -2 0 -8
v -2 1 -8
v -2 1 -1
v -3 0 0
v -3 0 -1
v -3 1 0
v -3 0 -8
v -3 1 -8
v -3 1 -1
v -4 0 0
v -4 0 -1
v -4 1 0
v -4 0 -8
v -4 1 -8
v -4 1 -1
v -5 0 0
v -5 0 -1
v -5 1 0
v -5 0 -8
v -5 1 -8
v -5 1 -1
v -6 0 0
v -6 0 -1
v -6 1 0
v -6 0 -8
v -6 1 -8
v -6 1 -1
v -7 0 0
v -7 0 -1
v -7 1 0
v -7 0 -8
v -7 1 -8
v -7 1 -1
v -8 0 0
v -8 0 -1
v -8 1 0
v -8 0 -8
v -8 1 -8
v -8 1 -1
v -9 0 0
v -9 0 -1
v -9 1 0
v -9 0 -8
v -9 1 -8
v -9 1 -1
v -10 0 0
v -10 0 -1
v -10 1 0
v -10 0 -8
v -10 1 -8
v -10 1 -1
v -11 0 0
v -11 0 -1
v -11 1 0
v -11 0 -8
v -11 1 -8
v -11 1 -1
v -12 0 0
v -12 0 -1
v -12 1 0
v -12 0 -8
v -12 1 -8
v -12 1 -1
v -13 0 0
v -13 0 -1
v -13 1 0
v -13 0 -8
v -13 1 -8
v -13 1 -1
v -14 0 0
v -14 0 -1
v -14 1 0
v -14 0 -8
v -14 1 -8
v -14 1 -1
v -15 0 0
v -15 0 -1
v -15 1 0
v -15 0 -8
v -15 1 -8
v -15 1 -1
v -16 0 0
v -16 0 -1
v -16 1 0
v -16 0 -8
v -16 1 -8
v -16 1 -1
v -17 0 0
v -17 0 -1
v -17 1 0
v -17 0 -8
v -17 1 -8
v -17 1 -1
v -18 0 0
v -18 0 -1
v -18 1 0
v -18 0 -8
v -18 1 -8
v -18 1 -1
v -19 0 0
v -19 0 -1
v -19 1 0
v -19 0 -8
v -19 1 -8
v -19 1 -1
v -20 0 -8
v -20 1 -8
v -1 0 -2
v 0 0 -2
v -2 0 -2
v 0 1 -2
v -1 1 -2
v -2 1 -2
v -3 0 -2
v -3 1 -2
v -4 0 -2
v -4 1 -2
v -5 0 -2
v -5 1 -2
v -6 0 -2
v -6 1 -2
v -7 0 -2
v -7 1 -2
v -8 0 -2
v -8 1 -2
v -9 0 -2
v -9 1 -2
v -10 0 -2
v -10 1 -2
v -11 0 -2
v -11 1 -2
v -12 0 -2
v -12 1 -2
v -13 0 -2
v -13 1 -2
v -14 0 -2
v -14 1 -2
v -15 0 -2
v -15 1 -2
v -16 0 -2
v -16 1 -2
v -17 0 -2
v -17 1 -2
v -18 0 -2
v -18 1 -2
v -19 0 -2
v -19 1 -2
v -20 0 -2
v -20 1 -2
v -1 0 -3
v 0 0 -3
v -2 0 -3
v 0 1 -3
v -1 1 -3
v -2 1 -3
v -3 0 -3
v -3 1 -3
v -4 0 -3
v -4 1 -3
v -5 0 -3
v -5 1 -3
v -6 0 -3
v -6 1 -3
v -7 0 -3
v -7 1 -3
v -8 0 -3
v -8 1 -3
v -9 0 -3
v -9 1 -3
v -10 0 -3
v -10 1 -3
v -11 0 -3
v -11 1 -3
v -12 0 -3
v -12 1 -3
v -13 0 -3
v -13 1 -3
v -14 0 -3
v -14 1 -3
v -15 0 -3
v -15 1 -3
v -16 0 -3
v -16 1 -3
v -17 0 -3
v -17 1 -3
v -18 0 -3
v -18 1 -3
v -19 0 -3
v -19 1 -3
v -20 0 -3
v -20 1 -3
v -1 0 -4
v 0 0 -4
v -2 0 -4
v 0 1 -4
v -1 1 -4
v -2 1 -4
v -3 0 -4
v -3 1 -4
v -4 0 -4
v -4 1 -4
v -5 0 -4
v -5 1 -4
v -6 0 -4
v -6 1 -4
v -7 0 -4
v -7 1 -4
v -8 0 -4
v -8 1 -4
v -9 0 -4
v -9 1 -4
v -10 0 -4
v -10 1 -4
v -11 0 -4
v -11 1 -4
v -12 0 -4
v -12 1 -4
v -13 0 -4
v -13 1 -4
v -14 0 -4
v -14 1 -4
v -15 0 -4
v -15 1 -4
v -16 0 -4
v -16 1 -4
v -17 0 -4
v -17 1 -4
v -18 0 -4
v -18 1 -4
v -19 0 -4
v -19 1 -4
v -20 0 -4
v -20 1 -4
v -21 1 -3
v -21 0 -3
v -21 1 -4
v -21 0 -4
v -1 0 -5
v 0 0 -5
v -2 0 -5
v 0 1 -5
v -1 1 -5
v -2 1 -5
v -3 0 -5
v -3 1 -5
v -4 0 -5
v -4 1 -5
v -5 0 -5
v -5 1 -5
v -6 0 -5
v -6 1 -5
v -7 0 -5
v -7 1 -5
v -8 0 -5
v -8 1 -5
v -9 0 -5
v -9 1 -5
v -10 0 -5
v -10 1 -5
v -11 0 -5
v -11 1 -5
v -12 0 -5
v -12 1 -5
v -13 0 -5
v -13 1 -5
v -14 0 -5
v -14 1 -5
v -15 0 -5
v -15 1 -5
v -16 0 -5
v -16 1 -5
v -17 0 -5
v -17 1 -5
v -18 0 -5
v -18 1 -5
v -19 0 -5
v -19 1 -5
v -20 0 -5
v -20 1 -5
v -1 0 -6
v 0 0 -6
v -2 0 -6
v 0 1 -6
v -1 1 -6
v -2 1 -6
v -3 0 -6
v -3 1 -6
v -4 0 -6
v -4 1 -6
v -5 0 -6
v -5 1 -6
v -6 0 -6
v -6 1 -6
v -7 0 -6
v -7 1 -6
v -8 0 -6
v -8 1 -6
v -9 0 -6
v -9 1 -6
v -10 0 -6
v -10 1 -6
v -11 0 -6
v -11 1 -6
v -12 0 -6
v -12 1 -6
v -13 0 -6
v -13 1 -6
v -14 0 -6
v -14 1 -6
v -15 0 -6
v -15 1 -6
v -16 0 -6
v -16 1 -6
v -17 0 -6
v -17 1 -6
v -18 0 -6
v -18 1 -6
v -19 0 -6
v -19 1 -6
v -20 0 -6
v -20 1 -6
v -1 0 -7
v 0 0 -7
v -2 0 -7
v 0 1 -7
v -1 1 -7
v -2 1 -7
v -3 0 -7
v -3 1 -7
v -4 0 -7
v -4 1 -7
v -5 0 -7
v -5 1 -7
v -6 0 -7
v -6 1 -7
v -7 0 -7
v -7 1 -7
v -8 0 -7
v -8 1 -7
v -9 0 -7
v -9 1 -7
v -10 0 -7
v -10 1 -7
v -11 0 -7
v -11 1 -7
v -12 0 -7
v -12 1 -7
v -13 0 -7
v -13 1 -7
v -14 0 -7
v -14 1 -7
v -15 0 -7
v -15 1 -7
v -16 0 -7
v -16 1 -7
v -17 0 -7
v -17 1 -7
v -18 0 -7
v -18 1 -7
v -19 0 -7
v -19 1 -7
v -20 0 -7
v -20 1 -7

vt 0 0
vt -1 0
vt 0 1
vt -1 1
vt 1 0
vt 1 1
vt 0 -1
vt 1 -1
vt -1 -1
vt -2 0
vt -2 -1
vt -2 1
vt 2 0
vt 2 1
vt 2 -1
vt -3 0
vt -3 -1
vt -3 1
vt 3 0
vt 3 1
vt 3 -1
vt -4 0
vt -4 -1
vt -4 1
vt 4 0
vt 4 1
vt 4 -1
vt -5 0
vt -5 -1
vt -5 1
vt 5 0
vt 5 1
vt 5 -1
vt -6 0
vt -6 -1
vt -6 1
vt 6 0
vt 6 1
vt 6 -1
vt -7 0
vt -7 -1
vt -7 1
vt 7 0
vt 7 1
vt 7 -1
vt -8 0
vt -8 -1
vt -8 1
vt 8 0
vt 8 1
vt 8 -1
vt -9 0
vt -9 -1
vt -9 1
vt 9 0
vt 9 1
vt 9 -1
vt -10 0
vt -10 -1
vt -10 1
vt 10 0
vt 10 1
vt 10 -1
vt -11 0
vt -11 -1
vt -11 1
vt 11 0
vt 11 1
vt 11 -1
vt -12 0
vt -12 -1
vt -12 1
vt 12 0
vt 12 1
vt 12 -1
vt -13 0
vt -13 -1
vt -13 1
vt 13 0
vt 13 1
vt 13 -1
vt -14 0
vt -14 -1
vt -14 1
vt 14 0
vt 14 1
vt 14 -1
vt -15 0
vt -15 -1
vt -15 1
vt 15 0
vt 15 1
vt 15 -1
vt -16 0
vt -16 -1
vt -16 1
vt 16 0
vt 16 1
vt 16 -1
vt -17 0
vt -17 -1
vt -17 1
vt 17 0
vt 17 1
vt 17 -1
vt -18 0
vt -18 -1
vt -18 1
vt 18 0
vt 18 1
vt 18 -1
vt -19 0
vt -19 -1
vt -19 1
vt 19 0
vt 19 1
vt 19 -1
vt -20 0
vt -20 -1
vt -20 1
vt 20 0
vt 20 1
vt 20 -1
vt -1 -2
vt 0 -2
vt -2 -2
vt 1 -2
vt 2 -2
vt -3 -2
vt 3 -2
vt -4 -2
vt 4 -2
vt -5 -2
vt 5 -2
vt -6 -2
vt 6 -2
vt -7 -2
vt 7 -2
vt -8 -2
vt 8 -2
vt -9 -2
vt 9 -2
vt -10 -2
vt 10 -2
vt -11 -2
vt 11 -2
vt -12 -2
vt 12 -2
vt -13 -2
vt 13 -2
vt -14 -2
vt 14 -2
vt -15 -2
vt 15 -2
vt -16 -2
vt 16 -2
vt -17 -2
vt 17 -2
vt -18 -2
vt 18 -2
vt -19 -2
vt 19 -2
vt -20 -2
vt 20 -2
vt -1 -3
vt 0 -3
vt -2 -3
vt 1 -3
vt 2 -3
vt -3 -3
vt 3 -3
vt -4 -3
vt 4 -3
vt -5 -3
vt 5 -3
vt -6 -3
vt 6 -3
vt -7 -3
vt 7 -3
vt -8 -3
vt 8 -3
vt -9 -3
vt 9 -3
vt -10 -3
vt 10 -3
vt -11 -3
vt 11 -3
vt -12 -3
vt 12 -3
vt -13 -3
vt 13 -3
vt -14 -3
vt 14 -3
vt -15 -3
vt 15 -3
vt -16 -3
vt 16 -3
vt -17 -3
vt 17 -3
vt -18 -3
vt 18 -3
vt -19 -3
vt 19 -3
vt -20 -3
vt 20 -3
vt -1 -4
vt 0 -4
vt -2 -4
vt 1 -4
vt 2 -4
vt -3 -4
vt 3 -4
vt -4 -4
vt 4 -4
vt -5 -4
vt 5 -4
vt -6 -4
vt 6 -4
vt -7 -4
vt 7 -4
vt -8 -4
vt 8 -4
vt -9 -4
vt 9 -4
vt -10 -4
vt 10 -4
vt -11 -4
vt 11 -4
vt -12 -4
vt 12 -4
vt -13 -4
vt 13 -4
vt -14 -4
vt 14 -4
vt -15 -4
vt 15 -4
vt -16 -4
vt 16 -4
vt -17 -4
vt 17 -4
vt -18 -4
vt 18 -4
vt -19 -4
vt 19 -4
vt -20 -4
vt 20 -4
vt -1 -5
vt 0 -5
vt -2 -5
vt 1 -5
vt 2 -5
vt -3 -5
vt 3 -5
vt -4 -5
vt 4 -5
vt -5 -5
vt 5 -5
vt -6 -5
vt 6 -5
vt -7 -5
vt 7 -5
vt -8 -5
vt 8 -5
vt -9 -5
vt 9 -5
vt -10 -5
vt 10 -5
vt -11 -5
vt 11 -5
vt -12 -5
vt 12 -5
vt -13 -5
vt 13 -5
vt -14 -5
vt 14 -5
vt -15 -5
vt 15 -5
vt -16 -5
vt 16 -5
vt -17 -5
vt 17 -5
vt -18 -5
vt 18 -5
vt -19 -5
vt 19 -5
vt -20 -5
vt 20 -5
vt -1 -6
vt 0 -6
vt -2 -6
vt 1 -6
vt 2 -6
vt -3 -6
vt 3 -6
vt -4 -6
vt 4 -6
vt -5 -6
vt 5 -6
vt -6 -6
vt 6 -6
vt -7 -6
vt 7 -6
vt -8 -6
vt 8 -6
vt -9 -6
vt 9 -6
vt -10 -6
vt 10 -6
vt -11 -6
vt 11 -6
vt -12 -6
vt 12 -6
vt -13 -6
vt 13 -6
vt -14 -6
vt 14 -6
vt -15 -6
vt 15 -6
vt -16 -6
vt 16 -6
vt -17 -6
vt 17 -6
vt -18 -6
vt 18 -6
vt -19 -6
vt 19 -6
vt -20 -6
vt 20 -6
vt -1 -7
vt 0 -7
vt -2 -7
vt 1 -7
vt 2 -7
vt -3 -7
vt 3 -7
vt -4 -7
vt 4 -7
vt -5 -7
vt 5 -7
vt -6 -7
vt 6 -7
vt -7 -7
vt 7 -7
vt -8 -7
vt 8 -7
vt -9 -7
vt 9 -7
vt -10 -7
vt 10 -7
vt -11 -7
vt 11 -7
vt -12 -7
vt 12 -7
vt -13 -7
vt 13 -7
vt -14 -7
vt 14 -7
vt -15 -7
vt 15 -7
vt -16 -7
vt 16 -7
vt -17 -7
vt 17 -7
vt -18 -7
vt 18 -7
vt -19 -7
vt 19 -7
vt -20 -7
vt 20 -7
vt -1 -8
vt 0 -8
vt -2 -8
vt 1 -8
vt 2 -8
vt -3 -8
vt 3 -8
vt -4 -8
vt 4 -8
vt -5 -8
vt 5 -8
vt -6 -8
vt 6 -8
vt -7 -8
vt 7 -8
vt -8 -8
vt 8 -8
vt -9 -8
vt 9 -8
vt -10 -8
vt 10 -8
vt -11 -8
vt 11 -8
vt -12 -8
vt 12 -8
vt -13 -8
vt 13 -8
vt -14 -8
vt 14 -8
vt -15 -8
vt 15 -8
vt -16 -8
vt 16 -8
vt -17 -8
vt 17 -8
vt -18 -8
vt 18 -8
vt -19 -8
vt 19 -8
vt -20 -8
vt 20 -8
vt -21 1
vt -21 0
vt 21 -4
vt 21 -3
vt -21 -3
vt -21 -4
vt 21 0
vt 21 1

vn 0 0 1
vn -1 0 0
vn 0 0 -1
vn 1 0 0
vn 0 1 0
vn 0 -1 0

usemtl ProBuilderDefault
f 3/3/1 4/4/1 2/2/1 1/1/1
f 7/3/2 8/4/2 6/2/2 5/1/2
f 11/6/3 12/3/3 10/1/3 9/5/3
f 14/6/4 3/3/4 1/1/4 13/5/4
f 14/7/5 15/8/5 4/5/5 3/1/5
f 1/1/6 2/2/6 16/9/6 13/7/6
f 17/10/6 18/11/6 16/9/6 2/2/6
f 19/12/1 17/10/1 2/2/1 4/4/1
f 20/13/3 21/14/3 11/6/3 9/5/3
f 22/15/5 19/13/5 4/5/5 15/8/5
f 23/16/6 24/17/6 18/11/6 17/10/6
f 25/18/1 23/16/1 17/10/1 19/12/1
f 26/19/3 27/20/3 21/14/3 20/13/3
f 28/21/5 25/19/5 19/13/5 22/15/5
f 29/22/6 30/23/6 24/17/6 23/16/6
f 31/24/1 29/22/1 23/16/1 25/18/1
f 32/25/3 33/26/3 27/20/3 26/19/3
f 34/27/5 31/25/5 25/19/5 28/21/5
f 35/28/6 36/29/6 30/23/6 29/22/6
f 37/30/1 35/28/1 29/22/1 31/24/1
f 38/31/3 39/32/3 33/26/3 32/25/3
f 40/33/5 37/31/5 31/25/5 34/27/5
f 41/34/6 42/35/6 36/29/6 35/28/6
f 43/36/1 41/34/1 35/28/1 37/30/1
f 44/37/3 45/38/3 39/32/3 38/31/3
f 46/39/5 43/37/5 37/31/5 40/33/5
f 47/40/6 48/41/6 42/35/6 41/34/6
f 49/42/1 47/40/1 41/34/1 43/36/1
f 50/43/3 51/44/3 45/38/3 44/37/3
f 52/45/5 49/43/5 43/37/5 46/39/5
f 53/46/6 54/47/6 48/41/6 47/40/6
f 55/48/1 53/46/1 47/40/1 49/42/1
f 56/49/3 57/50/3 51/44/3 50/43/3
f 58/51/5 55/49/5 49/43/5 52/45/5
f 59/52/6 60/53/6 54/47/6 53/46/6
f 61/54/1 59/52/1 53/46/1 55/48/1
f 62/55/3 63/56/3 57/50/3 56/49/3
f 64/57/5 61/55/5 55/49/5 58/51/5
f 65/58/6 66/59/6 60/53/6 59/52/6
f 67/60/1 65/58/1 59/52/1 61/54/1
f 68/61/3 69/62/3 63/56/3 62/55/3
f 70/63/5 67/61/5 61/55/5 64/57/5
f 71/64/6 72/65/6 66/59/6 65/58/6
f 73/66/1 71/64/1 65/58/1 67/60/1
f 74/67/3 75/68/3 69/62/3 68/61/3
f 76/69/5 73/67/5 67/61/5 70/63/5
f 77/70/6 78/71/6 72/65/6 71/64/6
f 79/72/1 77/70/1 71/64/1 73/66/1
f 80/73/3 81/74/3 75/68/3 74/67/3
f 82/75/5 79/73/5 73/67/5 76/69/5
f 83/76/6 84/77/6 78/71/6 77/70/6
f 85/78/1 83/76/1 77/70/1 79/72/1
f 86/79/3 87/80/3 81/74/3 80/73/3
f 88/81/5 85/79/5 79/73/5 82/75/5
f 89/82/6 90/83/6 84/77/6 83/76/6
f 91/84/1 89/82/1 83/76/1 85/78/1
f 92/85/3 93/86/3 87/80/3 86/79/3
f 94/87/5 91/85/5 85/79/5 88/81/5
f 95/88/6 96/89/6 90/83/6 89/82/6
f 97/90/1 95/88/1 89/82/1 91/84/1
f 98/91/3 99/92/3 93/86/3 92/85/3
f 100/93/5 97/91/5 91/85/5 94/87/5
f 101/94/6 102/95/6 96/89/6 95/88/6
f 103/96/1 101/94/1 95/88/1 97/90/1
f 104/97/3 105/98/3 99/92/3 98/91/3
f 106/99/5 103/97/5 97/91/5 100/93/5
f 107/100/6 108/101/6 102/95/6 101/94/6
f 109/102/1 107/100/1 101/94/1 103/96/1
f 110/103/3 111/104/3 105/98/3 104/97/3
f 112/105/5 109/103/5 103/97/5 106/99/5
f 113/106/6 114/107/6 108/101/6 107/100/6
f 115/108/1 113/106/1 107/100/1 109/102/1
f 116/109/3 117/110/3 111/104/3 110/103/3
f 118/111/5 115/109/5 109/103/5 112/105/5
f 119/112/6 120/113/6 114/107/6 113/106/6
f 121/114/1 119/112/1 113/106/1 115/108/1
f 122/115/3 123/116/3 117/110/3 116/109/3
f 124/117/5 121/115/5 115/109/5 118/111/5
f 5/118/6 6/119/6 120/113/6 119/112/6
f 7/120/1 5/118/1 119/112/1 121/114/1
f 125/121/3 126/122/3 123/116/3 122/115/3
f 8/123/5 7/121/5 121/115/5 124/117/5
f 127/124/6 128/125/6 13/7/6 16/9/6
f 129/126/6 127/124/6 16/9/6 18/11/6
f 128/13/4 130/14/4 14/6/4 13/5/4
f 130/125/5 131/127/5 15/8/5 14/7/5
f 131/127/5 132/128/5 22/15/5 15/8/5
f 133/129/6 129/126/6 18/11/6 24/17/6
f 132/128/5 134/130/5 28/21/5 22/15/5
f 135/131/6 133/129/6 24/17/6 30/23/6
f 134/130/5 136/132/5 34/27/5 28/21/5
f 137/133/6 135/131/6 30/23/6 36/29/6
f 136/132/5 138/134/5 40/33/5 34/27/5
f 139/135/6 137/133/6 36/29/6 42/35/6
f 138/134/5 140/136/5 46/39/5 40/33/5
f 141/137/6 139/135/6 42/35/6 48/41/6
f 140/136/5 142/138/5 52/45/5 46/39/5
f 143/139/6 141/137/6 48/41/6 54/47/6
f 142/138/5 144/140/5 58/51/5 52/45/5
f 145/141/6 143/139/6 54/47/6 60/53/6
f 144/140/5 146/142/5 64/57/5 58/51/5
f 147/143/6 145/141/6 60/53/6 66/59/6
f 146/142/5 148/144/5 70/63/5 64/57/5
f 149/145/6 147/143/6 66/59/6 72/65/6
f 148/144/5 150/146/5 76/69/5 70/63/5
f 151/147/6 149/145/6 72/65/6 78/71/6
f 150/146/5 152/148/5 82/75/5 76/69/5
f 153/149/6 151/147/6 78/71/6 84/77/6
f 152/148/5 154/150/5 88/81/5 82/75/5
f 155/151/6 153/149/6 84/77/6 90/83/6
f 154/150/5 156/152/5 94/87/5 88/81/5
f 157/153/6 155/151/6 90/83/6 96/89/6
f 156/152/5 158/154/5 100/93/5 94/87/5
f 159/155/6 157/153/6 96/89/6 102/95/6
f 158/154/5 160/156/5 106/99/5 100/93/5
f 161/157/6 159/155/6 102/95/6 108/101/6
f 160/156/5 162/158/5 112/105/5 106/99/5
f 163/159/6 161/157/6 108/101/6 114/107/6
f 162/158/5 164/160/5 118/111/5 112/105/5
f 165/161/6 163/159/6 114/107/6 120/113/6
f 164/160/5 166/162/5 124/117/5 118/111/5
f 167/163/6 165/161/6 120/113/6 6/119/6
f 166/162/5 168/164/5 8/123/5 124/117/5
f 168/12/2 167/10/2 6/2/2 8/4/2
f 169/165/6 170/166/6 128/125/6 127/124/6
f 171/167/6 169/165/6 127/124/6 129/126/6
f 170/19/4 172/20/4 130/14/4 128/13/4
f 172/166/5 173/168/5 131/127/5 130/125/5
f 173/168/5 174/169/5 132/128/5 131/127/5
f 175/170/6 171/167/6 129/126/6 133/129/6
f 174/169/5 176/171/5 134/130/5 132/128/5
f 177/172/6 175/170/6 133/129/6 135/131/6
f 176/171/5 178/173/5 136/132/5 134/130/5
f 179/174/6 177/172/6 135/131/6 137/133/6
f 178/173/5 180/175/5 138/134/5 136/132/5
f 181/176/6 179/174/6 137/133/6 139/135/6
f 180/175/5 182/177/5 140/136/5 138/134/5
f 183/178/6 181/176/6 139/135/6 141/137/6
f 182/177/5 184/179/5 142/138/5 140/136/5
f 185/180/6 183/178/6 141/137/6 143/139/6
f 184/179/5 186/181/5 144/140/5 142/138/5
f 187/182/6 185/180/6 143/139/6 145/141/6
f 186/181/5 188/183/5 146/142/5 144/140/5
f 189/184/6 187/182/6 145/141/6 147/143/6
f 188/183/5 190/185/5 148/144/5 146/142/5
f 191/186/6 189/184/6 147/143/6 149/145/6
f 190/185/5 192/187/5 150/146/5 148/144/5
f 193/188/6 191/186/6 149/145/6 151/147/6
f 192/187/5 194/189/5 152/148/5 150/146/5
f 195/190/6 193/188/6 151/147/6 153/149/6
f 194/189/5 196/191/5 154/150/5 152/148/5
f 197/192/6 195/190/6 153/149/6 155/151/6
f 196/191/5 198/193/5 156/152/5 154/150/5
f 199/194/6 197/192/6 155/151/6 157/153/6
f 198/193/5 200/195/5 158/154/5 156/152/5
f 201/196/6 199/194/6 157/153/6 159/155/6
f 200/195/5 202/197/5 160/156/5 158/154/5
f 203/198/6 201/196/6 159/155/6 161/157/6
f 202/197/5 204/199/5 162/158/5 160/156/5
f 205/200/6 203/198/6 161/157/6 163/159/6
f 204/199/5 206/201/5 164/160/5 162/158/5
f 207/202/6 205/200/6 163/159/6 165/161/6
f 206/201/5 208/203/5 166/162/5 164/160/5
f 209/204/6 207/202/6 165/161/6 167/163/6
f 208/203/5 210/205/5 168/164/5 166/162/5
f 210/18/2 209/16/2 167/10/2 168/12/2
f 211/206/6 212/207/6 170/166/6 169/165/6
f 213/208/6 211/206/6 169/165/6 171/167/6
f 212/25/4 214/26/4 172/20/4 170/19/4
f 214/207/5 215/209/5 173/168/5 172/166/5
f 215/209/5 216/210/5 174/169/5 173/168/5
f 217/211/6 213/208/6 171/167/6 175/170/6
f 216/210/5 218/212/5 176/171/5 174/169/5
f 219/213/6 217/211/6 175/170/6 177/172/6
f 218/212/5 220/214/5 178/173/5 176/171/5
f 221/215/6 219/213/6 177/172/6 179/174/6
f 220/214/5 222/216/5 180/175/5 178/173/5
f 223/217/6 221/215/6 179/174/6 181/176/6
f 222/216/5 224/218/5 182/177/5 180/175/5
f 225/219/6 223/217/6 181/176/6 183/178/6
f 224/218/5 226/220/5 184/179/5 182/177/5
f 227/221/6 225/219/6 183/178/6 185/180/6
f 226/220/5 228/222/5 186/181/5 184/179/5
f 229/223/6 227/221/6 185/180/6 187/182/6
f 228/222/5 230/224/5 188/183/5 186/181/5
f 231/225/6 229/223/6 187/182/6 189/184/6
f 230/224/5 232/226/5 190/185/5 188/183/5
f 233/227/6 231/225/6 189/184/6 191/186/6
f 232/226/5 234/228/5 192/187/5 190/185/5
f 235/229/6 233/227/6 191/186/6 193/188/6
f 234/228/5 236/230/5 194/189/5 192/187/5
f 237/231/6 235/229/6 193/188/6 195/190/6
f 236/230/5 238/232/5 196/191/5 194/189/5
f 239/233/6 237/231/6 195/190/6 197/192/6
f 238/232/5 240/234/5 198/193/5 196/191/5
f 241/235/6 239/233/6 197/192/6 199/194/6
f 240/234/5 242/236/5 200/195/5 198/193/5
f 243/237/6 241/235/6 199/194/6 201/196/6
f 242/236/5 244/238/5 202/197/5 200/195/5
f 245/239/6 243/237/6 201/196/6 203/198/6
f 244/238/5 246/240/5 204/199/5 202/197/5
f 247/241/6 245/239/6 203/198/6 205/200/6
f 246/240/5 248/242/5 206/201/5 204/199/5
f 249/243/6 247/241/6 205/200/6 207/202/6
f 248/242/5 250/244/5 208/203/5 206/201/5
f 251/245/6 249/243/6 207/202/6 209/204/6
f 250/244/5 252/246/5 210/205/5 208/203/5
f 255/24/2 256/22/2 254/16/2 253/18/2
f 257/247/6 258/248/6 212/207/6 211/206/6
f 259/249/6 257/247/6 211/206/6 213/208/6
f 258/31/4 260/32/4 214/26/4 212/25/4
f 260/248/5 261/250/5 215/209/5 214/207/5
f 261/250/5 262/251/5 216/210/5 215/209/5
f 263/252/6 259/249/6 213/208/6 217/211/6
f 262/251/5 264/253/5 218/212/5 216/210/5
f 265/254/6 263/252/6 217/211/6 219/213/6
f 264/253/5 266/255/5 220/214/5 218/212/5
f 267/256/6 265/254/6 219/213/6 221/215/6
f 266/255/5 268/257/5 222/216/5 220/214/5
f 269/258/6 267/256/6 221/215/6 223/217/6
f 268/257/5 270/259/5 224/218/5 222/216/5
f 271/260/6 269/258/6 223/217/6 225/219/6
f 270/259/5 272/261/5 226/220/5 224/218/5
f 273/262/6 271/260/6 225/219/6 227/221/6
f 272/261/5 274/263/5 228/222/5 226/220/5
f 275/264/6 273/262/6 227/221/6 229/223/6
f 274/263/5 276/265/5 230/224/5 228/222/5
f 277/266/6 275/264/6 229/223/6 231/225/6
f 276/265/5 278/267/5 232/226/5 230/224/5
f 279/268/6 277/266/6 231/225/6 233/227/6
f 278/267/5 280/269/5 234/228/5 232/226/5
f 281/270/6 279/268/6 233/227/6 235/229/6
f 280/269/5 282/271/5 236/230/5 234/228/5
f 283/272/6 281/270/6 235/229/6 237/231/6
f 282/271/5 284/273/5 238/232/5 236/230/5
f 285/274/6 283/272/6 237/231/6 239/233/6
f 284/273/5 286/275/5 240/234/5 238/232/5
f 287/276/6 285/274/6 239/233/6 241/235/6
f 286/275/5 288/277/5 242/236/5 240/234/5
f 289/278/6 287/276/6 241/235/6 243/237/6
f 288/277/5 290/279/5 244/238/5 242/236/5
f 291/280/6 289/278/6 243/237/6 245/239/6
f 290/279/5 292/281/5 246/240/5 244/238/5
f 293/282/6 291/280/6 245/239/6 247/241/6
f 292/281/5 294/283/5 248/242/5 246/240/5
f 295/284/6 293/282/6 247/241/6 249/243/6
f 294/283/5 296/285/5 250/244/5 248/242/5
f 297/286/6 295/284/6 249/243/6 251/245/6
f 296/285/5 298/287/5 252/246/5 250/244/5
f 298/30/2 297/28/2 251/22/2 252/24/2
f 299/288/6 300/289/6 258/248/6 257/247/6
f 301/290/6 299/288/6 257/247/6 259/249/6
f 300/37/4 302/38/4 260/32/4 258/31/4
f 302/289/5 303/291/5 261/250/5 260/248/5
f 303/291/5 304/292/5 262/251/5 261/250/5
f 305/293/6 301/290/6 259/249/6 263/252/6
f 304/292/5 306/294/5 264/253/5 262/251/5
f 307/295/6 305/293/6 263/252/6 265/254/6
f 306/294/5 308/296/5 266/255/5 264/253/5
f 309/297/6 307/295/6 265/254/6 267/256/6
f 308/296/5 310/298/5 268/257/5 266/255/5
f 311/299/6 309/297/6 267/256/6 269/258/6
f 310/298/5 312/300/5 270/259/5 268/257/5
f 313/301/6 311/299/6 269/258/6 271/260/6
f 312/300/5 314/302/5 272/261/5 270/259/5
f 315/303/6 313/301/6 271/260/6 273/262/6
f 314/302/5 316/304/5 274/263/5 272/261/5
f 317/305/6 315/303/6 273/262/6 275/264/6
f 316/304/5 318/306/5 276/265/5 274/263/5
f 319/307/6 317/305/6 275/264/6 277/266/6
f 318/306/5 320/308/5 278/267/5 276/265/5
f 321/309/6 319/307/6 277/266/6 279/268/6
f 320/308/5 322/310/5 280/269/5 278/267/5
f 323/311/6 321/309/6 279/268/6 281/270/6
f 322/310/5 324/312/5 282/271/5 280/269/5
f 325/313/6 323/311/6 281/270/6 283/272/6
f 324/312/5 326/314/5 284/273/5 282/271/5
f 327/315/6 325/313/6 283/272/6 285/274/6
f 326/314/5 328/316/5 286/275/5 284/273/5
f 329/317/6 327/315/6 285/274/6 287/276/6
f 328/316/5 330/318/5 288/277/5 286/275/5
f 331/319/6 329/317/6 287/276/6 289/278/6
f 330/318/5 332/320/5 290/279/5 288/277/5
f 333/321/6 331/319/6 289/278/6 291/280/6
f 332/320/5 334/322/5 292/281/5 290/279/5
f 335/323/6 333/321/6 291/280/6 293/282/6
f 334/322/5 336/324/5 294/283/5 292/281/5
f 337/325/6 335/323/6 293/282/6 295/284/6
f 336/324/5 338/326/5 296/285/5 294/283/5
f 339/327/6 337/325/6 295/284/6 297/286/6
f 338/326/5 340/328/5 298/287/5 296/285/5
f 340/36/2 339/34/2 297/28/2 298/30/2
f 341/329/6 342/330/6 300/289/6 299/288/6
f 343/331/6 341/329/6 299/288/6 301/290/6
f 342/43/4 344/44/4 302/38/4 300/37/4
f 344/330/5 345/332/5 303/291/5 302/289/5
f 345/332/5 346/333/5 304/292/5 303/291/5
f 347/334/6 343/331/6 301/290/6 305/293/6
f 346/333/5 348/335/5 306/294/5 304/292/5
f 349/336/6 347/334/6 305/293/6 307/295/6
f 348/335/5 350/337/5 308/296/5 306/294/5
f 351/338/6 349/336/6 307/295/6 309/297/6
f 350/337/5 352/339/5 310/298/5 308/296/5
f 353/340/6 351/338/6 309/297/6 311/299/6
f 352/339/5 354/341/5 312/300/5 310/298/5
f 355/342/6 353/340/6 311/299/6 313/301/6
f 354/341/5 356/343/5 314/302/5 312/300/5
f 357/344/6 355/342/6 313/301/6 315/303/6
f 356/343/5 358/345/5 316/304/5 314/302/5
f 359/346/6 357/344/6 315/303/6 317/305/6
f 358/345/5 360/347/5 318/306/5 316/304/5
f 361/348/6 359/346/6 317/305/6 319/307/6
f 360/347/5 362/349/5 320/308/5 318/306/5
f 363/350/6 361/348/6 319/307/6 321/309/6
f 362/349/5 364/351/5 322/310/5 320/308/5
f 365/352/6 363/350/6 321/309/6 323/311/6
f 364/351/5 366/353/5 324/312/5 322/310/5
f 367/354/6 365/352/6 323/311/6 325/313/6
f 366/353/5 368/355/5 326/314/5 324/312/5
f 369/356/6 367/354/6 325/313/6 327/315/6
f 368/355/5 370/357/5 328/316/5 326/314/5
f 371/358/6 369/356/6 327/315/6 329/317/6
f 370/357/5 372/359/5 330/318/5 328/316/5
f 373/360/6 371/358/6 329/317/6 331/319/6
f 372/359/5 374/361/5 332/320/5 330/318/5
f 375/362/6 373/360/6 331/319/6 333/321/6
f 374/361/5 376/363/5 334/322/5 332/320/5
f 377/364/6 375/362/6 333/321/6 335/323/6
f 376/363/5 378/365/5 336/324/5 334/322/5
f 379/366/6 377/364/6 335/323/6 337/325/6
f 378/365/5 380/367/5 338/326/5 336/324/5
f 381/368/6 379/366/6 337/325/6 339/327/6
f 380/367/5 382/369/5 340/328/5 338/326/5
f 382/42/2 381/40/2 339/34/2 340/36/2
f 9/370/6 10/371/6 342/330/6 341/329/6
f 20/372/6 9/370/6 341/329/6 343/331/6
f 10/49/4 12/50/4 344/44/4 342/43/4
f 12/371/5 11/373/5 345/332/5 344/330/5
f 11/373/5 21/374/5 346/333/5 345/332/5
f 26/375/6 20/372/6 343/331/6 347/334/6
f 21/374/5 27/376/5 348/335/5 346/333/5
f 32/377/6 26/375/6 347/334/6 349/336/6
f 27/376/5 33/378/5 350/337/5 348/335/5
f 38/379/6 32/377/6 349/336/6 351/338/6
f 33/378/5 39/380/5 352/339/5 350/337/5
f 44/381/6 38/379/6 351/338/6 353/340/6
f 39/380/5 45/382/5 354/341/5 352/339/5
f 50/383/6 44/381/6 353/340/6 355/342/6
f 45/382/5 51/384/5 356/343/5 354/341/5
f 56/385/6 50/383/6 355/342/6 357/344/6
f 51/384/5 57/386/5 358/345/5 356/343/5
f 62/387/6 56/385/6 357/344/6 359/346/6
f 57/386/5 63/388/5 360/347/5 358/345/5
f 68/389/6 62/387/6 359/346/6 361/348/6
f 63/388/5 69/390/5 362/349/5 360/347/5
f 74/391/6 68/389/6 361/348/6 363/350/6
f 69/390/5 75/392/5 364/351/5 362/349/5
f 80/393/6 74/391/6 363/350/6 365/352/6
f 75/392/5 81/394/5 366/353/5 364/351/5
f 86/395/6 80/393/6 365/352/6 367/354/6
f 81/394/5 87/396/5 368/355/5 366/353/5
f 92/397/6 86/395/6 367/354/6 369/356/6
f 87/396/5 93/398/5 370/357/5 368/355/5
f 98/399/6 92/397/6 369/356/6 371/358/6
f 93/398/5 99/400/5 372/359/5 370/357/5
f 104/401/6 98/399/6 371/358/6 373/360/6
f 99/400/5 105/402/5 374/361/5 372/359/5
f 110/403/6 104/401/6 373/360/6 375/362/6
f 105/402/5 111/404/5 376/363/5 374/361/5
f 116/405/6 110/403/6 375/362/6 377/364/6
f 111/404/5 117/406/5 378/365/5 376/363/5
f 122/407/6 116/405/6 377/364/6 379/366/6
f 117/406/5 123/408/5 380/367/5 378/365/5
f 125/409/6 122/407/6 379/366/6 381/368/6
f 123/408/5 126/410/5 382/369/5 380/367/5
f 126/48/2 125/46/2 381/40/2 382/42/2
f 253/411/1 254/412/1 209/118/1 210/120/1
f 255/413/5 253/414/5 210/205/5 252/246/5
f 254/415/6 256/416/6 251/245/6 209/204/6
f 256/417/3 255/418/3 252/122/3 251/121/3

